ModifiedDate,rowguid,OLE DB Source.ProductID,Name,ProductNumber,MakeFlag,FinishedGoodsFlag,Color,SafetyStockLevel,ReorderPoint,StandardCost,ListPrice,Size,SizeUnitMeasureCode,WeightUnitMeasureCode,Weight,DaysToManufacture,ProductLine,Class,Style,ProductSubcategoryID,ProductModelID,SellStartDate,SellEndDate,DiscontinuedDate,Lookup.ProductID
2014-02-08 10:01:36.827000000,{E73E9750-603B-4131-89F5-3DD15ED5FF80},,Blade,BL-2036,True,False,,800,600,0,0,,,,,1,,,,,,2008-04-30 00:00:00,,,
2014-02-08 10:01:36.827000000,{3C9D10B7-A6B2-4774-9963-C19DCEE72FEA},,LL Crankarm,CA-5965,False,False,Black,500,375,0,0,,,,,0,,L ,,,,2008-04-30 00:00:00,,,
2014-02-08 10:01:36.827000000,{EABB9A92-FA07-4EAB-8955-F0517B4A4CA7},,ML Crankarm,CA-6738,False,False,Black,500,375,0,0,,,,,0,,M ,,,,2008-04-30 00:00:00,,,
2014-02-08 10:01:36.827000000,{7D3FD384-4F29-484B-86FA-4206E276FE58},,HL Crankarm,CA-7457,False,False,Black,500,375,0,0,,,,,0,,,,,,2008-04-30 00:00:00,,,
2014-02-08 10:01:36.827000000,{7BE38E48-B7D6-4486-888E-F53C26735101},,Chainring Bolts,CB-2903,False,False,Silver,1000,750,0,0,,,,,0,,,,,,2008-04-30 00:00:00,,,
2014-02-08 10:01:36.827000000,{3314B1D7-EF69-4431-B6DD-DC75268BD5DF},,Chainring Nut,CN-6137,False,False,Silver,1000,750,0,0,,,,,0,,,,,,2008-04-30 00:00:00,,,
2014-02-08 10:01:36.827000000,{F0AC2C4D-1A1F-4E3C-B4D9-68AEA0EC1CE4},,Chainring,CR-7833,False,False,Black,1000,750,0,0,,,,,0,,,,,,2008-04-30 00:00:00,,,
2014-02-08 10:01:36.827000000,{51A32CA6-65A1-4C31-AF2B-D9E4F5D631D4},,Crown Race,CR-9981,False,False,,1000,750,0,0,,,,,0,,,,,,2008-04-30 00:00:00,,,
2014-02-08 10:01:36.827000000,{FE0678ED-AEF2-4C58-A450-8151CC24DDD8},,Chain Stays,CS-2812,True,False,,1000,750,0,0,,,,,1,,,,,,2008-04-30 00:00:00,,,
2014-02-08 10:01:36.827000000,{05CE123C-A402-478E-AE9B-75D7727AEAAD},,Decal 1,DC-8732,False,False,,1000,750,0,0,,,,,0,,,,,,2008-04-30 00:00:00,,,
2014-02-08 10:01:36.827000000,{A56851F9-1CD7-4E2F-8779-2E773E1B5209},,Decal 2,DC-9824,False,False,,1000,750,0,0,,,,,0,,,,,,2008-04-30 00:00:00,,,
2014-02-08 10:01:36.827000000,{1DAD47DD-E259-42B8-B8B4-15A0B7D21B2F},,Down Tube,DT-2377,True,False,,800,600,0,0,,,,,1,,,,,,2008-04-30 00:00:00,,,
2014-02-08 10:01:36.827000000,{6070B1EA-59B7-4F8B-950F-2BE07D00449D},,Mountain End Caps,EC-M092,True,False,,1000,750,0,0,,,,,1,,,,,,2008-04-30 00:00:00,,,
2014-02-08 10:01:36.827000000,{88399D13-719E-4545-81D6-F0650F372FA2},,Road End Caps,EC-R098,True,False,,1000,750,0,0,,,,,1,,,,,,2008-04-30 00:00:00,,,
2014-02-08 10:01:36.827000000,{6903CE24-D0CE-4191-9198-4231DE37A929},,Touring End Caps,EC-T209,True,False,,1000,750,0,0,,,,,1,,,,,,2008-04-30 00:00:00,,,
2014-02-08 10:01:36.827000000,{C91D602E-DA52-43D2-BD7E-EB110A9392B9},,Fork End,FE-3760,True,False,,800,600,0,0,,,,,1,,,,,,2008-04-30 00:00:00,,,
2014-02-08 10:01:36.827000000,{D864879A-E8B1-4F7B-BAFA-1F136089C2C8},,Freewheel,FH-2981,False,False,Silver,500,375,0,0,,,,,0,,,,,,2008-04-30 00:00:00,,,
2014-02-08 10:01:36.827000000,{A3F2FA3A-22E1-43D8-A131-A9B89C32D8EA},,Flat Washer 1,FW-1000,False,False,,1000,750,0,0,,,,,0,,,,,,2008-04-30 00:00:00,,,
2014-02-08 10:01:36.827000000,{331ADDEC-E9B9-4A7E-9324-42069C2DCDC4},,Flat Washer 6,FW-1200,False,False,,1000,750,0,0,,,,,0,,,,,,2008-04-30 00:00:00,,,
2014-02-08 10:01:36.827000000,{84A3473E-AE26-4A21-81B9-60BB418A79B2},,Flat Washer 2,FW-1400,False,False,,1000,750,0,0,,,,,0,,,,,,2008-04-30 00:00:00,,,
2014-02-08 10:01:36.827000000,{0AE4CE60-5242-48F5-ADA1-3013FF45F969},,Flat Washer 9,FW-3400,False,False,,1000,750,0,0,,,,,0,,,,,,2008-04-30 00:00:00,,,
2014-02-08 10:01:36.827000000,{2C1C58B4-234C-4B3A-8C8E-84524AC05EEA},,Flat Washer 4,FW-3800,False,False,,1000,750,0,0,,,,,0,,,,,,2008-04-30 00:00:00,,,
2014-02-08 10:01:36.827000000,{590C2C3F-A8B6-42B5-9412-D655E37F0EAE},,Flat Washer 3,FW-5160,False,False,,1000,750,0,0,,,,,0,,,,,,2008-04-30 00:00:00,,,
2014-02-08 10:01:36.827000000,{1B73F5FE-AB85-49FC-99AD-0500CEBDA91D},,Flat Washer 8,FW-5800,False,False,,1000,750,0,0,,,,,0,,,,,,2008-04-30 00:00:00,,,
2014-02-08 10:01:36.827000000,{D182CF18-4DDF-429B-A0DF-DE1CFC92622D},,Flat Washer 5,FW-7160,False,False,,1000,750,0,0,,,,,0,,,,,,2008-04-30 00:00:00,,,
2014-02-08 10:01:36.827000000,{7E55F64D-EA3C-45FF-BE72-F7F7B9D61A79},,Flat Washer 7,FW-9160,False,False,,1000,750,0,0,,,,,0,,,,,,2008-04-30 00:00:00,,,
2014-02-08 10:01:36.827000000,{1CBFA85B-5C9B-4B58-9C17-95238215D926},,Fork Crown,FC-3654,True,False,,800,600,0,0,,,,,1,,,,,,2008-04-30 00:00:00,,,
2014-02-08 10:01:36.827000000,{01C901E3-4323-48ED-AB9E-9BFDA28BDEF6},,Front Derailleur Cage,FC-3982,False,False,Silver,800,600,0,0,,,,,0,,,,,,2008-04-30 00:00:00,,,
2014-02-08 10:01:36.827000000,{88ED2E08-E775-4915-B506-831600B773FD},,Front Derailleur Linkage,FL-2301,False,False,Silver,800,600,0,0,,,,,0,,,,,,2008-04-30 00:00:00,,,
2014-02-08 10:01:36.827000000,{6A89205B-90C3-4997-8C63-BC6A5EBC752D},,Guide Pulley,GP-0982,False,False,,800,600,0,0,,,,,0,,,,,,2008-04-30 00:00:00,,,
2014-02-08 10:01:36.827000000,{32C82181-1969-4660-AE04-A02D51994EC1},,LL Grip Tape,GT-0820,False,False,,800,600,0,0,,,,,0,,L ,,,,2008-04-30 00:00:00,,,
2014-02-08 10:01:36.827000000,{09343E22-2494-4279-9F32-5D961A0FBFEA},,ML Grip Tape,GT-1209,False,False,,800,600,0,0,,,,,0,,M ,,,,2008-04-30 00:00:00,,,
2014-02-08 10:01:36.827000000,{8E5B2BF7-81DD-4454-B75E-D9AE2A6FBD26},,HL Grip Tape,GT-2908,False,False,,800,600,0,0,,,,,0,,,,,,2008-04-30 00:00:00,,,
2014-02-08 10:01:36.827000000,{A63AFF3C-4143-4016-BC99-D3F80EC1ADE5},,Thin-Jam Hex Nut 9,HJ-1213,False,False,,1000,750,0,0,,,,,0,,,,,,2008-04-30 00:00:00,,,
2014-02-08 10:01:36.827000000,{A1AE0C6D-92A5-4FDA-B33B-1301E83EFE5B},,Thin-Jam Hex Nut 10,HJ-1220,False,False,,1000,750,0,0,,,,,0,,,,,,2008-04-30 00:00:00,,,
2014-02-08 10:01:36.827000000,{E33E8C4C-282A-4D1F-91E7-E9969CF7134F},,Thin-Jam Hex Nut 1,HJ-1420,False,False,,1000,750,0,0,,,,,0,,,,,,2008-04-30 00:00:00,,,
2014-02-08 10:01:36.827000000,{A992684F-4642-4856-A817-2C0740AE8C55},,Thin-Jam Hex Nut 2,HJ-1428,False,False,,1000,750,0,0,,,,,0,,,,,,2008-04-30 00:00:00,,,
2014-02-08 10:01:36.827000000,{B9D9A30D-CB07-422D-A312-F0535575337E},,Thin-Jam Hex Nut 15,HJ-3410,False,False,,1000,750,0,0,,,,,0,,,,,,2008-04-30 00:00:00,,,
2014-02-08 10:01:36.827000000,{0EC8F653-24C9-41B6-86F5-39C1789DB580},,Thin-Jam Hex Nut 16,HJ-3416,False,False,,1000,750,0,0,,,,,0,,,,,,2008-04-30 00:00:00,,,
2014-02-08 10:01:36.827000000,{94506C9D-5991-46A7-82EA-00E05D8D9B9C},,Thin-Jam Hex Nut 5,HJ-3816,False,False,,1000,750,0,0,,,,,0,,,,,,2008-04-30 00:00:00,,,
2014-02-08 10:01:36.827000000,{71E984C6-1D11-4CF2-BAEE-6C8DF494BDAD},,Thin-Jam Hex Nut 6,HJ-3824,False,False,,1000,750,0,0,,,,,0,,,,,,2008-04-30 00:00:00,,,
2014-02-08 10:01:36.827000000,{EFC09CDB-ECD5-4DB5-9E27-277DDA6D7F50},,Thin-Jam Hex Nut 3,HJ-5161,False,False,,1000,750,0,0,,,,,0,,,,,,2008-04-30 00:00:00,,,
2014-02-08 10:01:36.827000000,{0A0C93AA-D06C-48AA-99EB-20F2C8A6D6C4},,Thin-Jam Hex Nut 4,HJ-5162,False,False,,1000,750,0,0,,,,,0,,,,,,2008-04-30 00:00:00,,,
2014-02-08 10:01:36.827000000,{A2728648-9517-4DEC-8606-D7D98ECD1E91},,Thin-Jam Hex Nut 13,HJ-5811,False,False,,1000,750,0,0,,,,,0,,,,,,2008-04-30 00:00:00,,,
2014-02-08 10:01:36.827000000,{0A7AD37C-3696-4844-8633-9FDDCD5FCEFC},,Thin-Jam Hex Nut 14,HJ-5818,False,False,,1000,750,0,0,,,,,0,,,,,,2008-04-30 00:00:00,,,
2014-02-08 10:01:36.827000000,{ACBB1DE1-680C-4034-A8C5-3C6B01E57AA7},,Thin-Jam Hex Nut 7,HJ-7161,False,False,,1000,750,0,0,,,,,0,,,,,,2008-04-30 00:00:00,,,
2014-02-08 10:01:36.827000000,{A0DA8F8F-45FB-4E62-AB14-AA229087DE1E},,Thin-Jam Hex Nut 8,HJ-7162,False,False,,1000,750,0,0,,,,,0,,,,,,2008-04-30 00:00:00,,,
2014-02-08 10:01:36.827000000,{DB99CBCD-F18D-4979-8DCF-1012F3B1CB15},,Thin-Jam Hex Nut 12,HJ-9080,False,False,,1000,750,0,0,,,,,0,,,,,,2008-04-30 00:00:00,,,
2014-02-08 10:01:36.827000000,{EC2E54F5-9D07-4C26-B969-40F835395BE3},,Thin-Jam Hex Nut 11,HJ-9161,False,False,,1000,750,0,0,,,,,0,,,,,,2008-04-30 00:00:00,,,
2014-02-08 10:01:36.827000000,{F2F3A14C-DF15-4957-966D-55E5FCAD1161},,Hex Nut 5,HN-1024,False,False,,1000,750,0,0,,,,,0,,,,,,2008-04-30 00:00:00,,,
2014-02-08 10:01:36.827000000,{E73E44DD-F0B7-45D4-9066-E49F1B1FE7D0},,Hex Nut 6,HN-1032,False,False,,1000,750,0,0,,,,,0,,,,,,2008-04-30 00:00:00,,,
2014-02-08 10:01:36.827000000,{2B2A5641-BFFE-4079-B9F0-8BF355BC3996},,Hex Nut 16,HN-1213,False,False,,1000,750,0,0,,,,,0,,,,,,2008-04-30 00:00:00,,,
2014-02-08 10:01:36.827000000,{F70BBECD-5BE7-4EE9-A9E7-15786E622BA9},,Hex Nut 17,HN-1220,False,False,,1000,750,0,0,,,,,0,,,,,,2008-04-30 00:00:00,,,
2014-02-08 10:01:36.827000000,{BA3631D1-33D6-4A2F-8413-758BFDA6F9C2},,Hex Nut 7,HN-1224,False,False,,1000,750,0,0,,,,,0,,,,,,2008-04-30 00:00:00,,,
2014-02-08 10:01:36.827000000,{B478B33A-1FD5-4DB6-B99A-EB3B2A7C1623},,Hex Nut 8,HN-1420,False,False,,1000,750,0,0,,,,,0,,,,,,2008-04-30 00:00:00,,,
2014-02-08 10:01:36.827000000,{DA46D979-59DF-456D-B5AE-E7E89FC589DF},,Hex Nut 9,HN-1428,False,False,,1000,750,0,0,,,,,0,,,,,,2008-04-30 00:00:00,,,
2014-02-08 10:01:36.827000000,{2F457404-197D-4DDF-9868-A3AAD1B32D6B},,Hex Nut 22,HN-3410,False,False,,1000,750,0,0,,,,,0,,,,,,2008-04-30 00:00:00,,,
2014-02-08 10:01:36.827000000,{5F02449E-96E5-4FC8-ADE0-8A9A7F533624},,Hex Nut 23,HN-3416,False,False,,1000,750,0,0,,,,,0,,,,,,2008-04-30 00:00:00,,,
2014-02-08 10:01:36.827000000,{32C97696-7C3D-4793-A54B-3D73200BADBC},,Hex Nut 12,HN-3816,False,False,,1000,750,0,0,,,,,0,,,,,,2008-04-30 00:00:00,,,
2014-02-08 10:01:36.827000000,{8F0902D0-274D-4A4B-8FDE-E37F53B2AB29},,Hex Nut 13,HN-3824,False,False,,1000,750,0,0,,,,,0,,,,,,2008-04-30 00:00:00,,,
2014-02-08 10:01:36.827000000,{57456F8C-CB78-45EC-B9B8-21A9BE5C12F5},,Hex Nut 1,HN-4402,False,False,,1000,750,0,0,,,,,0,,,,,,2008-04-30 00:00:00,,,
2014-02-08 10:01:36.827000000,{955811B4-2F17-48F0-A8B4-0C96CBA4AA6D},,Hex Nut 10,HN-5161,False,False,,1000,750,0,0,,,,,0,,,,,,2008-04-30 00:00:00,,,
2014-02-08 10:01:36.827000000,{7D4BAD17-374F-4281-9AE5-49ABC3FE585D},,Hex Nut 11,HN-5162,False,False,,1000,750,0,0,,,,,0,,,,,,2008-04-30 00:00:00,,,
2014-02-08 10:01:36.827000000,{17C4B7BA-8574-4EC7-BD3B-7A51ABA61F69},,Hex Nut 2,HN-5400,False,False,,1000,750,0,0,,,,,0,,,,,,2008-04-30 00:00:00,,,
2014-02-08 10:01:36.827000000,{B4E990B7-B3F7-4F97-8F98-CE373833ADB4},,Hex Nut 20,HN-5811,False,False,,1000,750,0,0,,,,,0,,,,,,2008-04-30 00:00:00,,,
2014-02-08 10:01:36.827000000,{433EE702-E028-4630-895C-8CDBD0F1FD89},,Hex Nut 21,HN-5818,False,False,,1000,750,0,0,,,,,0,,,,,,2008-04-30 00:00:00,,,
2014-02-08 10:01:36.827000000,{EE76FAE0-161E-409C-A6F5-837B5B8B344D},,Hex Nut 3,HN-6320,False,False,,1000,750,0,0,,,,,0,,,,,,2008-04-30 00:00:00,,,
2014-02-08 10:01:36.827000000,{EB10B88C-5351-4C06-AF51-116BAA48A2C8},,Hex Nut 14,HN-7161,False,False,,1000,750,0,0,,,,,0,,,,,,2008-04-30 00:00:00,,,
2014-02-08 10:01:36.827000000,{35E28755-E8F0-47BE-A8BE-A20836DBE28D},,Hex Nut 15,HN-7162,False,False,,1000,750,0,0,,,,,0,,,,,,2008-04-30 00:00:00,,,
2014-02-08 10:01:36.827000000,{69AB8D5E-6101-4203-81B1-794E923782EA},,Hex Nut 4,HN-8320,False,False,,1000,750,0,0,,,,,0,,,,,,2008-04-30 00:00:00,,,
2014-02-08 10:01:36.827000000,{39D42384-66F6-4CCD-B471-0589FC3FC576},,Hex Nut 18,HN-9161,False,False,,1000,750,0,0,,,,,0,,,,,,2008-04-30 00:00:00,,,
2014-02-08 10:01:36.827000000,{B63F827E-9055-4678-9E90-4FFD8D06D4D4},,Hex Nut 19,HN-9168,False,False,,1000,750,0,0,,,,,0,,,,,,2008-04-30 00:00:00,,,
2014-02-08 10:01:36.827000000,{9F88C58E-5CFA-46C9-8994-DA4F3FFE92ED},,Handlebar Tube,HT-2981,True,False,,800,600,0,0,,,,,1,,,,,,2008-04-30 00:00:00,,,
2014-02-08 10:01:36.827000000,{B047C048-B4FB-4F80-94BC-C5FC00A6F77F},,Head Tube,HT-8019,True,False,,800,600,0,0,,,,,1,,,,,,2008-04-30 00:00:00,,,
2014-02-08 10:01:36.827000000,{AB332DDA-DDA5-44AD-8C50-34FFACEFFA8E},,LL Hub,HU-6280,True,False,,500,375,0,0,,,,,1,,L ,,,,2008-04-30 00:00:00,,,
2014-02-08 10:01:36.827000000,{D59403A3-D19E-4803-BDA2-B436A6416FDA},,HL Hub,HU-8998,True,False,,500,375,0,0,,,,,1,,,,,,2008-04-30 00:00:00,,,
2014-02-08 10:01:36.827000000,{43024784-2741-4CAB-A6DC-8050CE507F2E},,Keyed Washer,KW-4091,False,False,,1000,750,0,0,,,,,0,,,,,,2008-04-30 00:00:00,,,
2014-02-08 10:01:36.827000000,{763412F0-6D53-43E2-B371-DCBED69F5E98},,External Lock Washer 3,LE-1000,False,False,,1000,750,0,0,,,,,0,,,,,,2008-04-30 00:00:00,,,
2014-02-08 10:01:36.827000000,{89B6E84F-5C08-4CD9-B803-01F2CE24E417},,External Lock Washer 4,LE-1200,False,False,,1000,750,0,0,,,,,0,,,,,,2008-04-30 00:00:00,,,
2014-02-08 10:01:36.827000000,{3330A721-E8CB-4E67-8D27-300DB68C2395},,External Lock Washer 9,LE-1201,False,False,,1000,750,0,0,,,,,0,,,,,,2008-04-30 00:00:00,,,
2014-02-08 10:01:36.827000000,{39314098-768B-49F9-A777-AF2E3BB06B17},,External Lock Washer 5,LE-1400,False,False,,1000,750,0,0,,,,,0,,,,,,2008-04-30 00:00:00,,,
2014-02-08 10:01:36.827000000,{93F7BC73-BD22-45A0-9F2E-A11932342E6B},,External Lock Washer 7,LE-3800,False,False,,1000,750,0,0,,,,,0,,,,,,2008-04-30 00:00:00,,,
2014-02-08 10:01:36.827000000,{DC5F4CB0-A599-42CD-A96F-E9F01BC1DACC},,External Lock Washer 6,LE-5160,False,False,,1000,750,0,0,,,,,0,,,,,,2008-04-30 00:00:00,,,
2014-02-08 10:01:36.827000000,{802B7687-BC74-43F8-98AE-2112166FACA7},,External Lock Washer 1,LE-6000,False,False,,1000,750,0,0,,,,,0,,,,,,2008-04-30 00:00:00,,,
2014-02-08 10:01:36.827000000,{02C48826-21AD-41F3-85A6-BC9A85A4DCE4},,External Lock Washer 8,LE-7160,False,False,,1000,750,0,0,,,,,0,,,,,,2008-04-30 00:00:00,,,
2014-02-08 10:01:36.827000000,{502A2A3D-CD72-43AD-8FB6-77505187EDF4},,External Lock Washer 2,LE-8000,False,False,,1000,750,0,0,,,,,0,,,,,,2008-04-30 00:00:00,,,
2014-02-08 10:01:36.827000000,{F1168C45-E4D2-4C37-ADAD-B76EAF402B71},,Internal Lock Washer 3,LI-1000,False,False,,1000,750,0,0,,,,,0,,,,,,2008-04-30 00:00:00,,,
2014-02-08 10:01:36.827000000,{7F7413BB-BAD2-47E4-9BC4-D98B194BE35D},,Internal Lock Washer 4,LI-1200,False,False,,1000,750,0,0,,,,,0,,,,,,2008-04-30 00:00:00,,,
2014-02-08 10:01:36.827000000,{4F040109-8332-4FCF-8084-57E6D8C49283},,Internal Lock Washer 9,LI-1201,False,False,,1000,750,0,0,,,,,0,,,,,,2008-04-30 00:00:00,,,
2014-02-08 10:01:36.827000000,{0C02F2CC-BDB4-4794-A4F9-0EB33F7545C2},,Internal Lock Washer 5,LI-1400,False,False,,1000,750,0,0,,,,,0,,,,,,2008-04-30 00:00:00,,,
2014-02-08 10:01:36.827000000,{3C2AC5BC-3F49-4FA4-8340-BC4CDA983F46},,Internal Lock Washer 7,LI-3800,False,False,,1000,750,0,0,,,,,0,,,,,,2008-04-30 00:00:00,,,
2014-02-08 10:01:36.827000000,{7F175DFE-1669-4EE9-8EEB-7B55FCE9961C},,Internal Lock Washer 6,LI-5160,False,False,,1000,750,0,0,,,,,0,,,,,,2008-04-30 00:00:00,,,
2014-02-08 10:01:36.827000000,{C8323EEC-BDB2-4933-B3C6-24287638AD56},,Internal Lock Washer 10,LI-5800,False,False,,1000,750,0,0,,,,,0,,,,,,2008-04-30 00:00:00,,,
2014-02-08 10:01:36.827000000,{71F8232D-2B59-41AC-99A1-F5EA197671B5},,Internal Lock Washer 1,LI-6000,False,False,,1000,750,0,0,,,,,0,,,,,,2008-04-30 00:00:00,,,
2014-02-08 10:01:36.827000000,{E2F03586-02E8-4CD9-A342-1A8D65D393BD},,Internal Lock Washer 8,LI-7160,False,False,,1000,750,0,0,,,,,0,,,,,,2008-04-30 00:00:00,,,
2014-02-08 10:01:36.827000000,{97741A88-92A1-4E72-B0AA-BCB198A1C378},,Internal Lock Washer 2,LI-8000,False,False,,1000,750,0,0,,,,,0,,,,,,2008-04-30 00:00:00,,,
2014-02-08 10:01:36.827000000,{7DA2613B-3347-4072-A1DC-943ADA161D7F},,Thin-Jam Lock Nut 9,LJ-1213,False,False,,1000,750,0,0,,,,,0,,,,,,2008-04-30 00:00:00,,,
2014-02-08 10:01:36.827000000,{A88F15BE-2719-4741-93A4-2D96EF3712EB},,Thin-Jam Lock Nut 10,LJ-1220,False,False,,1000,750,0,0,,,,,0,,,,,,2008-04-30 00:00:00,,,
2014-02-08 10:01:36.827000000,{48461E5D-D58A-47E5-8BA3-CE4430FCA611},,Thin-Jam Lock Nut 1,LJ-1420,False,False,,1000,750,0,0,,,,,0,,,,,,2008-04-30 00:00:00,,,
2014-02-08 10:01:36.827000000,{36187EB6-AD84-47B7-A55E-2941D3435FE2},,Thin-Jam Lock Nut 2,LJ-1428,False,False,,1000,750,0,0,,,,,0,,,,,,2008-04-30 00:00:00,,,
2014-02-08 10:01:36.827000000,{99215648-AFE8-4556-BC80-B6C62AE74FC8},,Thin-Jam Lock Nut 15,LJ-3410,False,False,,1000,750,0,0,,,,,0,,,,,,2008-04-30 00:00:00,,,
2014-02-08 10:01:36.827000000,{B4FC4C32-049C-417F-BBB0-F19CDFD64252},,Thin-Jam Lock Nut 16,LJ-3416,False,False,,1000,750,0,0,,,,,0,,,,,,2008-04-30 00:00:00,,,
2014-02-08 10:01:36.827000000,{A57B7915-2E65-49DE-87BA-ACD007C55ADB},,Thin-Jam Lock Nut 5,LJ-3816,False,False,,1000,750,0,0,,,,,0,,,,,,2008-04-30 00:00:00,,,
2014-02-08 10:01:36.827000000,{5ABD940C-D61F-4108-8312-0EA97E469613},,Thin-Jam Lock Nut 6,LJ-3824,False,False,,1000,750,0,0,,,,,0,,,,,,2008-04-30 00:00:00,,,
2014-02-08 10:01:36.827000000,{9883496F-4785-4BFC-8AF3-C357347B9F89},,Thin-Jam Lock Nut 3,LJ-5161,False,False,,1000,750,0,0,,,,,0,,,,,,2008-04-30 00:00:00,,,
2014-02-08 10:01:36.827000000,{8C5EE683-D93C-4F25-9454-22FAA4C31365},,Thin-Jam Lock Nut 4,LJ-5162,False,False,,1000,750,0,0,,,,,0,,,,,,2008-04-30 00:00:00,,,
2014-02-08 10:01:36.827000000,{38E4A447-3D3C-4087-ABAD-97F006525B52},,Thin-Jam Lock Nut 13,LJ-5811,False,False,,1000,750,0,0,,,,,0,,,,,,2008-04-30 00:00:00,,,
2014-02-08 10:01:36.827000000,{DCE24B6C-76D8-4934-A4F6-C934364943EA},,Thin-Jam Lock Nut 14,LJ-5818,False,False,,1000,750,0,0,,,,,0,,,,,,2008-04-30 00:00:00,,,
2014-02-08 10:01:36.827000000,{344AD07C-CCA5-4374-A3F3-8A7E0A1D9916},,Thin-Jam Lock Nut 7,LJ-7161,False,False,,1000,750,0,0,,,,,0,,,,,,2008-04-30 00:00:00,,,
2014-02-08 10:01:36.827000000,{B2508CF2-C64F-493D-9DB4-0D6601AF1F73},,Thin-Jam Lock Nut 8,LJ-7162,False,False,,1000,750,0,0,,,,,0,,,,,,2008-04-30 00:00:00,,,
2014-02-08 10:01:36.827000000,{5D3E589F-4584-406B-B9CC-3C8C060CB9A5},,Thin-Jam Lock Nut 12,LJ-9080,False,False,,1000,750,0,0,,,,,0,,,,,,2008-04-30 00:00:00,,,
2014-02-08 10:01:36.827000000,{64169A28-161C-4737-B724-F42FFD99DE80},,Thin-Jam Lock Nut 11,LJ-9161,False,False,,1000,750,0,0,,,,,0,,,,,,2008-04-30 00:00:00,,,
2014-02-08 10:01:36.827000000,{EB4C1D34-4816-4130-BB30-07B4DE4072B6},,Lock Nut 5,LN-1024,False,False,,1000,750,0,0,,,,,0,,,,,,2008-04-30 00:00:00,,,
2014-02-08 10:01:36.827000000,{98CCBB38-4683-486E-BBFE-CBBE4EA63C03},,Lock Nut 6,LN-1032,False,False,,1000,750,0,0,,,,,0,,,,,,2008-04-30 00:00:00,,,
2014-02-08 10:01:36.827000000,{BBFD88F8-28C5-44EE-B625-52E882393DFC},,Lock Nut 16,LN-1213,False,False,,1000,750,0,0,,,,,0,,,,,,2008-04-30 00:00:00,,,
2014-02-08 10:01:36.827000000,{92DC4BA8-A052-45DF-83EC-226F050F876B},,Lock Nut 17,LN-1220,False,False,,1000,750,0,0,,,,,0,,,,,,2008-04-30 00:00:00,,,
2014-02-08 10:01:36.827000000,{D583D825-C707-4529-B6F2-ABFFA21B81EC},,Lock Nut 7,LN-1224,False,False,,1000,750,0,0,,,,,0,,,,,,2008-04-30 00:00:00,,,
2014-02-08 10:01:36.827000000,{E91C3DC2-C99B-4D01-8108-5DDE3C87830A},,Lock Nut 8,LN-1420,False,False,,1000,750,0,0,,,,,0,,,,,,2008-04-30 00:00:00,,,
2014-02-08 10:01:36.827000000,{06534A20-4C00-4824-8BBA-B4E3A5724D93},,Lock Nut 9,LN-1428,False,False,,1000,750,0,0,,,,,0,,,,,,2008-04-30 00:00:00,,,
2014-02-08 10:01:36.827000000,{1E4FA4EC-367E-4D8D-88B4-6CD34D1CFB89},,Lock Nut 22,LN-3410,False,False,,1000,750,0,0,,,,,0,,,,,,2008-04-30 00:00:00,,,
2014-02-08 10:01:36.827000000,{AFA814C8-8EC8-49DB-9FEE-A291197A8FE9},,Lock Nut 23,LN-3416,False,False,,1000,750,0,0,,,,,0,,,,,,2008-04-30 00:00:00,,,
2014-02-08 10:01:36.827000000,{9A751F85-7130-4562-9F22-DB9CAB6E5BBC},,Lock Nut 12,LN-3816,False,False,,1000,750,0,0,,,,,0,,,,,,2008-04-30 00:00:00,,,
2014-02-08 10:01:36.827000000,{06BE8347-45C1-4C40-AFCB-6AB34AD135FB},,Lock Nut 13,LN-3824,False,False,,1000,750,0,0,,,,,0,,,,,,2008-04-30 00:00:00,,,
2014-02-08 10:01:36.827000000,{1DC29704-E0E0-4EF5-B581-4A524730C448},,Lock Nut 1,LN-4400,False,False,,1000,750,0,0,,,,,0,,,,,,2008-04-30 00:00:00,,,
2014-02-08 10:01:36.827000000,{612C26C7-6018-4050-B628-8B2D2E6841FA},,Lock Nut 10,LN-5161,False,False,,1000,750,0,0,,,,,0,,,,,,2008-04-30 00:00:00,,,
2014-02-08 10:01:36.827000000,{5BCC4558-6C16-48F1-92F0-FD2EEFB17306},,Lock Nut 11,LN-5162,False,False,,1000,750,0,0,,,,,0,,,,,,2008-04-30 00:00:00,,,
2014-02-08 10:01:36.827000000,{53AD147D-C16D-4A8C-B086-625A31405574},,Lock Nut 2,LN-5400,False,False,,1000,750,0,0,,,,,0,,,,,,2008-04-30 00:00:00,,,
2014-02-08 10:01:36.827000000,{2749030E-49B7-4B24-8D47-FBCF194ABA38},,Lock Nut 20,LN-5811,False,False,,1000,750,0,0,,,,,0,,,,,,2008-04-30 00:00:00,,,
2014-02-08 10:01:36.827000000,{E10A7B34-87F5-42CD-88B3-27A3D8E16B18},,Lock Nut 21,LN-5818,False,False,,1000,750,0,0,,,,,0,,,,,,2008-04-30 00:00:00,,,
2014-02-08 10:01:36.827000000,{AA5071EB-2145-4D08-9D33-B9D2BA9E1493},,Lock Nut 3,LN-6320,False,False,,1000,750,0,0,,,,,0,,,,,,2008-04-30 00:00:00,,,
2014-02-08 10:01:36.827000000,{1E96B03D-DC07-4A98-BC24-BF5B24C393E5},,Lock Nut 14,LN-7161,False,False,,1000,750,0,0,,,,,0,,,,,,2008-04-30 00:00:00,,,
2014-02-08 10:01:36.827000000,{CE04DE2B-4ECA-4203-A108-B7D92FF0E96E},,Lock Nut 15,LN-7162,False,False,,1000,750,0,0,,,,,0,,,,,,2008-04-30 00:00:00,,,
2014-02-08 10:01:36.827000000,{41BD9389-8B22-4A35-9A2C-233D39ADA7EA},,Lock Nut 4,LN-8320,False,False,,1000,750,0,0,,,,,0,,,,,,2008-04-30 00:00:00,,,
2014-02-08 10:01:36.827000000,{5986504B-22A0-4E74-A137-C7CF99A8216F},,Lock Nut 19,LN-9080,False,False,,1000,750,0,0,,,,,0,,,,,,2008-04-30 00:00:00,,,
2014-02-08 10:01:36.827000000,{A420963F-92FD-4CD4-8531-6926E4162C41},,Lock Nut 18,LN-9161,False,False,,1000,750,0,0,,,,,0,,,,,,2008-04-30 00:00:00,,,
2014-02-08 10:01:36.827000000,{AECA59DA-B61C-4976-8316-97E14CD4EFF1},,Lock Ring,LR-2398,False,False,Silver,1000,750,0,0,,,,,0,,,,,,2008-04-30 00:00:00,,,
2014-02-08 10:01:36.827000000,{DBB962BF-0603-4095-959B-5BA9C74FBD32},,Lower Head Race,LR-8520,False,False,,1000,750,0,0,,,,,0,,,,,,2008-04-30 00:00:00,,,
2014-02-08 10:01:36.827000000,{A3EE3BC5-73C5-45F3-A952-9991D038DD9C},,Lock Washer 4,LW-1000,False,False,,1000,750,0,0,,,,,0,,,,,,2008-04-30 00:00:00,,,
2014-02-08 10:01:36.827000000,{ECAED08D-2CF5-4D81-A4ED-8369E25AF227},,Lock Washer 5,LW-1200,False,False,,1000,750,0,0,,,,,0,,,,,,2008-04-30 00:00:00,,,
2014-02-08 10:01:36.827000000,{A2212BAB-AF58-41A5-A659-A6141C8967CA},,Lock Washer 10,LW-1201,False,False,,1000,750,0,0,,,,,0,,,,,,2008-04-30 00:00:00,,,
2014-02-08 10:01:36.827000000,{9092F2E1-3637-4669-8565-55404A55750E},,Lock Washer 6,LW-1400,False,False,,1000,750,0,0,,,,,0,,,,,,2008-04-30 00:00:00,,,
2014-02-08 10:01:36.827000000,{3CB31F4A-C61C-408C-BE1E-48BEE412E511},,Lock Washer 13,LW-3400,False,False,,1000,750,0,0,,,,,0,,,,,,2008-04-30 00:00:00,,,
2014-02-08 10:01:36.827000000,{900D26E6-21A0-427D-B43C-173F6DCB2045},,Lock Washer 8,LW-3800,False,False,,1000,750,0,0,,,,,0,,,,,,2008-04-30 00:00:00,,,
2014-02-08 10:01:36.827000000,{5402EA37-29DF-47FF-9FC7-867D60594C48},,Lock Washer 1,LW-4000,False,False,,1000,750,0,0,,,,,0,,,,,,2008-04-30 00:00:00,,,
2014-02-08 10:01:36.827000000,{99357255-E66B-458C-AB2E-6F68EF5452D2},,Lock Washer 7,LW-5160,False,False,,1000,750,0,0,,,,,0,,,,,,2008-04-30 00:00:00,,,
2014-02-08 10:01:36.827000000,{7BC9D58E-3E62-481F-8343-BEB0883B3ECF},,Lock Washer 12,LW-5800,False,False,,1000,750,0,0,,,,,0,,,,,,2008-04-30 00:00:00,,,
2014-02-08 10:01:36.827000000,{5F201424-9E6A-4F8D-9C2C-30777E27D64F},,Lock Washer 2,LW-6000,False,False,,1000,750,0,0,,,,,0,,,,,,2008-04-30 00:00:00,,,
2014-02-08 10:01:36.827000000,{F9426FB2-1E68-464E-BF32-615026E0249E},,Lock Washer 9,LW-7160,False,False,,1000,750,0,0,,,,,0,,,,,,2008-04-30 00:00:00,,,
2014-02-08 10:01:36.827000000,{AC007B7F-73B7-4623-8150-02444C5EC023},,Lock Washer 3,LW-8000,False,False,,1000,750,0,0,,,,,0,,,,,,2008-04-30 00:00:00,,,
2014-02-08 10:01:36.827000000,{639D8448-B427-47B1-9E5B-0E5090A27632},,Lock Washer 11,LW-9160,False,False,,1000,750,0,0,,,,,0,,,,,,2008-04-30 00:00:00,,,
2014-02-08 10:01:36.827000000,{E876E239-7EC2-45C8-BA4B-B9CEACB379A6},,Metal Angle,MA-7075,False,False,,1000,750,0,0,,,,,0,,,,,,2008-04-30 00:00:00,,,
2014-02-08 10:01:36.827000000,{8B5429CE-7876-44B3-9332-BAF78A238B36},,Metal Bar 1,MB-2024,False,False,,1000,750,0,0,,,,,0,,,,,,2008-04-30 00:00:00,,,
2014-02-08 10:01:36.827000000,{2A14F60E-3827-49BA-AF13-466DBC30C5BA},,Metal Bar 2,MB-6061,False,False,,1000,750,0,0,,,,,0,,,,,,2008-04-30 00:00:00,,,
2014-02-08 10:01:36.827000000,{0773A2C9-F47F-429E-814A-25B2E08C128A},,Metal Plate 2,MP-2066,False,False,,1000,750,0,0,,,,,0,,,,,,2008-04-30 00:00:00,,,
2014-02-08 10:01:36.827000000,{242389BE-DDE0-42A1-85D9-F99FDC981336},,Metal Plate 1,MP-2503,False,False,,1000,750,0,0,,,,,0,,,,,,2008-04-30 00:00:00,,,
2014-02-08 10:01:36.827000000,{8B7E90E5-7785-455E-BC7C-E962F18C6848},,Metal Plate 3,MP-4960,False,False,,1000,750,0,0,,,,,0,,,,,,2008-04-30 00:00:00,,,
2014-02-08 10:01:36.827000000,{8BB96DFB-23AA-4877-9C5E-866BB18FACC7},,Metal Sheet 2,MS-0253,False,False,,1000,750,0,0,,,,,0,,,,,,2008-04-30 00:00:00,,,
2014-02-08 10:01:36.827000000,{9074E00D-005B-450E-9C92-6667782E8108},,Metal Sheet 3,MS-1256,False,False,,1000,750,0,0,,,,,0,,,,,,2008-04-30 00:00:00,,,
2014-02-08 10:01:36.827000000,{A9539885-0CEE-4AA0-9072-8DB1D34A16DB},,Metal Sheet 7,MS-1981,False,False,,1000,750,0,0,,,,,0,,,,,,2008-04-30 00:00:00,,,
2014-02-08 10:01:36.827000000,{3CB3CF7D-AB8E-44A3-B7E9-73149F5EC29F},,Metal Sheet 4,MS-2259,False,False,,1000,750,0,0,,,,,0,,,,,,2008-04-30 00:00:00,,,
2014-02-08 10:01:36.827000000,{2A2C555D-328D-4299-BD83-591D0762DF62},,Metal Sheet 5,MS-2341,False,False,,1000,750,0,0,,,,,0,,,,,,2008-04-30 00:00:00,,,
2014-02-08 10:01:36.827000000,{64844011-A1C3-4F8F-9CAA-9C8D214ECC12},,Metal Sheet 6,MS-2348,False,False,,1000,750,0,0,,,,,0,,,,,,2008-04-30 00:00:00,,,
2014-02-08 10:01:36.827000000,{3B2FEBC6-C76C-4A56-9CF7-8AF5B76E24EE},,Metal Sheet 1,MS-6061,False,False,,1000,750,0,0,,,,,0,,,,,,2008-04-30 00:00:00,,,
2014-02-08 10:01:36.827000000,{D2177B6C-3352-43F0-9A41-719754DD280C},,Metal Tread Plate,MT-1000,False,False,,1000,750,0,0,,,,,0,,,,,,2008-04-30 00:00:00,,,
2014-02-08 10:01:36.827000000,{88310F73-AB0A-41A2-8597-936F192B7D12},,LL Nipple,NI-4127,False,False,,1000,750,0,0,,,,,0,,L ,,,,2008-04-30 00:00:00,,,
2014-02-08 10:01:36.827000000,{88A7B897-6FF5-4CA2-B68A-6EA0E86F92B9},,HL Nipple,NI-9522,False,False,,1000,750,0,0,,,,,0,,,,,,2008-04-30 00:00:00,,,
2014-02-08 10:01:36.827000000,{DF20E514-3D47-491B-9454-0911EC3F7D29},,Paint - Black,PA-187B,False,False,,60,45,0,0,,,,,0,,,,,,2008-04-30 00:00:00,,,
2014-02-08 10:01:36.827000000,{4C568357-5D21-4AD4-BB85-BB5519B3B50C},,Paint - Red,PA-361R,False,False,,60,45,0,0,,,,,0,,,,,,2008-04-30 00:00:00,,,
2014-02-08 10:01:36.827000000,{FA81E47D-7333-49C2-809B-308171CA2FB1},,Paint - Silver,PA-529S,False,False,,60,45,0,0,,,,,0,,,,,,2008-04-30 00:00:00,,,
2014-02-08 10:01:36.827000000,{25A73761-AE90-49D3-8D1D-DD7858DB4704},,Paint - Blue,PA-632U,False,False,,60,45,0,0,,,,,0,,,,,,2008-04-30 00:00:00,,,
2014-02-08 10:01:36.827000000,{1C8ADB43-9FE8-44A6-B949-8AF33CE9486E},,Paint - Yellow,PA-823Y,False,False,,60,45,0,0,,,,,0,,,,,,2008-04-30 00:00:00,,,
2014-02-08 10:01:36.827000000,{F1694C24-DFAB-4C92-BC66-6E717DB24EA8},,Pinch Bolt,PB-6109,False,False,,1000,750,0,0,,,,,0,,,,,,2008-04-30 00:00:00,,,
2014-02-08 10:01:36.827000000,{874C800E-334D-4A3C-8D3A-1E872D5B2A1B},,Cup-Shaped Race,RA-2345,False,False,,1000,750,0,0,,,,,0,,,,,,2008-04-30 00:00:00,,,
2014-02-08 10:01:36.827000000,{35CE3995-9DD2-40E2-98B8-275931AC2D76},,Cone-Shaped Race,RA-7490,False,False,,1000,750,0,0,,,,,0,,,,,,2008-04-30 00:00:00,,,
2014-02-08 10:01:36.827000000,{1C850499-38ED-4C2D-8665-7EDB6A7CE93D},,Reflector,RF-9198,False,False,,1000,750,0,0,,,,,0,,,,,,2008-04-30 00:00:00,,,
2014-02-08 10:01:36.827000000,{B2CC7DFB-783D-4587-88C0-2712A538A5B2},,LL Mountain Rim,RM-M464,False,False,,800,600,0,0,,,G  ,435,00,0,,L ,,,,2008-04-30 00:00:00,,,
2014-02-08 10:01:36.827000000,{733FD04D-322F-44F5-BEEC-F326189D1CE6},,ML Mountain Rim,RM-M692,False,False,,800,600,0,0,,,G  ,450,00,0,,M ,,,,2008-04-30 00:00:00,,,
2014-02-08 10:01:36.827000000,{9FA4A3B5-D396-48D4-ADFC-B573BC4A800A},,HL Mountain Rim,RM-M823,False,False,,800,600,0,0,,,G  ,400,00,0,,,,,,2008-04-30 00:00:00,,,
2014-02-08 10:01:36.827000000,{C2770757-B258-4EEC-A811-6856FAF87437},,LL Road Rim,RM-R436,False,False,,800,600,0,0,,,G  ,445,00,0,,L ,,,,2008-04-30 00:00:00,,,
2014-02-08 10:01:36.827000000,{80108059-0002-4253-A805-53A2324C33A4},,ML Road Rim,RM-R600,False,False,,800,600,0,0,,,G  ,450,00,0,,M ,,,,2008-04-30 00:00:00,,,
2014-02-08 10:01:36.827000000,{CD9B5C44-FB31-4E0F-9905-3B2086966CC5},,HL Road Rim,RM-R800,False,False,,800,600,0,0,,,G  ,400,00,0,,,,,,2008-04-30 00:00:00,,,
2014-02-08 10:01:36.827000000,{4852DB13-308A-4893-AAFA-390A0DFE9F12},,Touring Rim,RM-T801,False,False,,800,600,0,0,,,G  ,460,00,0,,,,,,2008-04-30 00:00:00,,,
2014-02-08 10:01:36.827000000,{FCFC0A4F-4563-4E0B-BFF4-5DDCFE3A9273},,LL Mountain Seat Assembly,SA-M198,True,False,,500,375,98,77,133,34,,,,,1,,L ,,,,2008-04-30 00:00:00,,,
2014-02-08 10:01:36.827000000,{D3C8AE4C-A1BE-448D-BF58-6ECBF36AFA0B},,ML Mountain Seat Assembly,SA-M237,True,False,,500,375,108,99,147,14,,,,,1,,M ,,,,2008-04-30 00:00:00,,,
2014-02-08 10:01:36.827000000,{9E18ADAB-B9C7-45B1-BD95-1805EC4F297D},,HL Mountain Seat Assembly,SA-M687,True,False,,500,375,145,87,196,92,,,,,1,,,,,,2008-04-30 00:00:00,,,
2014-02-08 10:01:36.827000000,{F5A30B8D-F35B-43F2-83A0-F7F6B51F6241},,LL Road Seat Assembly,SA-R127,True,False,,500,375,98,77,133,34,,,,,1,,L ,,,,2008-04-30 00:00:00,,,
2014-02-08 10:01:36.827000000,{AD109395-FDA9-4C2A-96F1-515CCDE3D9F4},,ML Road Seat Assembly,SA-R430,True,False,,500,375,108,99,147,14,,,,,1,,M ,,,,2008-04-30 00:00:00,,,
2014-02-08 10:01:36.827000000,{7B52EE2A-7100-4A39-A0AF-C89012DA6EF8},,HL Road Seat Assembly,SA-R522,True,False,,500,375,145,87,196,92,,,,,1,,,,,,2008-04-30 00:00:00,,,
2014-02-08 10:01:36.827000000,{AF3D83BA-4B8E-4072-817F-E6B095A1C879},,LL Touring Seat Assembly,SA-T467,True,False,,500,375,98,77,133,34,,,,,1,,L ,,,,2008-04-30 00:00:00,,,
2014-02-08 10:01:36.827000000,{85B9A3DE-000C-4351-9494-05796689C216},,ML Touring Seat Assembly,SA-T612,True,False,,500,375,108,99,147,14,,,,,1,,M ,,,,2008-04-30 00:00:00,,,
2014-02-08 10:01:36.827000000,{8C471BCA-A735-4087-AD50-90EDE0AC1A1B},,HL Touring Seat Assembly,SA-T872,True,False,,500,375,145,87,196,92,,,,,1,,,,,,2008-04-30 00:00:00,,,
2014-02-08 10:01:36.827000000,{D2BD1F55-2CD4-4998-89FA-28FF2E28DE2C},,LL Spindle/Axle,SD-2342,False,False,,500,375,0,0,,,,,0,,L ,,,,2008-04-30 00:00:00,,,
2014-02-08 10:01:36.827000000,{6CE0661D-BA1F-4012-B785-55165B3B241A},,HL Spindle/Axle,SD-9872,False,False,,500,375,0,0,,,,,0,,,,,,2008-04-30 00:00:00,,,
2014-02-08 10:01:36.827000000,{AE7BCDA7-E836-4F68-9E61-745F27F9AA3E},,LL Shell,SH-4562,False,False,,800,600,0,0,,,,,0,,L ,,,,2008-04-30 00:00:00,,,
2014-02-08 10:01:36.827000000,{D215A3AE-AAF2-4CB0-9D20-3758AAD078E2},,HL Shell,SH-9312,False,False,,800,600,0,0,,,,,0,,,,,,2008-04-30 00:00:00,,,
2014-02-08 10:01:36.827000000,{5AABB729-343B-4084-A235-CCB3DA9F29E7},,Spokes,SK-9283,False,False,,1000,750,0,0,,,,,0,,,,,,2008-04-30 00:00:00,,,
2014-02-08 10:01:36.827000000,{4A898B1E-9A3B-4BEB-9873-A7465934051A},,Seat Lug,SL-0931,False,False,,1000,750,0,0,,,,,0,,,,,,2008-04-30 00:00:00,,,
2014-02-08 10:01:36.827000000,{1173306E-B616-4C4A-B715-4E0A483BA2B5},,Stem,SM-9087,True,False,,500,375,0,0,,,,,1,,,,,,2008-04-30 00:00:00,,,
2014-02-08 10:01:36.827000000,{9B4CEB84-4E84-43F3-B326-9B7F22905363},,Seat Post,SP-2981,False,False,,500,375,0,0,,,,,0,,,,,,2008-04-30 00:00:00,,,
2014-02-08 10:01:36.827000000,{F3B140A1-B139-4BB5-B144-1B7CBBEE6C9A},,Steerer,SR-2098,True,False,,500,375,0,0,,,,,1,,,,,,2008-04-30 00:00:00,,,
2014-02-08 10:01:36.827000000,{20C2C611-DFFC-49B5-99CF-D89BDD3A91CE},,Seat Stays,SS-2985,True,False,,800,600,0,0,,,,,1,,,,,,2008-04-30 00:00:00,,,
2014-02-08 10:01:36.827000000,{41F5388B-7253-4002-BCC6-B2A50920D11F},,Seat Tube,ST-9828,True,False,,500,375,0,0,,,,,1,,,,,,2008-04-30 00:00:00,,,
2014-02-08 10:01:36.827000000,{4C0BAD8E-066B-46B8-BFE9-DA61539606E8},,Top Tube,TO-2301,True,False,,500,375,0,0,,,,,1,,,,,,2008-04-30 00:00:00,,,
2014-02-08 10:01:36.827000000,{13DF62B2-8A7B-47D5-9084-F1172C4779E4},,Tension Pulley,TP-0923,False,False,,800,600,0,0,,,,,0,,,,,,2008-04-30 00:00:00,,,
2014-02-08 10:01:36.827000000,{912B03EA-4447-48C8-85DA-09B80AB26340},,Rear Derailleur Cage,RC-0291,False,False,Silver,500,375,0,0,,,,,0,,,,,,2008-04-30 00:00:00,,,
2014-02-08 10:01:36.827000000,{43DD68D6-14A4-461F-9069-55309D90EA7E},,HL Road Frame - Black, 58,FR-R92B-58,True,True,Black,500,375,1059,31,1431,5,58,CM ,LB ,2,24,1,R ,H ,U ,14,6,2008-04-30 00:00:00,,,
2014-02-08 10:01:36.827000000,{9540FF17-2712-4C90-A3D1-8CE5568B2462},,HL Road Frame - Red, 58,FR-R92R-58,True,True,Red,500,375,1059,31,1431,5,58,CM ,LB ,2,24,1,R ,H ,U ,14,6,2008-04-30 00:00:00,,,
2014-02-08 10:01:36.827000000,{2E1EF41A-C08A-4FF6-8ADA-BDE58B64A712},,Sport-100 Helmet, Red,HL-U509-R,False,True,Red,4,3,13,0863,34,99,,,,,0,S ,,,31,33,2011-05-31 00:00:00,,,
2014-02-08 10:01:36.827000000,{A25A44FB-C2DE-4268-958F-110B8D7621E2},,Sport-100 Helmet, Black,HL-U509,False,True,Black,4,3,13,0863,34,99,,,,,0,S ,,,31,33,2011-05-31 00:00:00,,,
2014-02-08 10:01:36.827000000,{18F95F47-1540-4E02-8F1F-CC1BCB6828D0},,Mountain Bike Socks, M,SO-B909-M,False,True,White,4,3,3,3963,9,5,M,,,,0,M ,,U ,23,18,2011-05-31 00:00:00,2012-05-29 00:00:00,,
2014-02-08 10:01:36.827000000,{161C035E-21B3-4E14-8E44-AF508F35D80A},,Mountain Bike Socks, L,SO-B909-L,False,True,White,4,3,3,3963,9,5,L,,,,0,M ,,U ,23,18,2011-05-31 00:00:00,2012-05-29 00:00:00,,
2014-02-08 10:01:36.827000000,{FD7C0858-4179-48C2-865B-ABD5DFC7BC1D},,Sport-100 Helmet, Blue,HL-U509-B,False,True,Blue,4,3,13,0863,34,99,,,,,0,S ,,,31,33,2011-05-31 00:00:00,,,
2014-02-08 10:01:36.827000000,{B9EDE243-A6F4-4629-B1D4-FFE1AEDC6DE7},,AWC Logo Cap,CA-1098,False,True,Multi,4,3,6,9223,8,99,,,,,0,S ,,U ,19,2,2011-05-31 00:00:00,,,
2014-02-08 10:01:36.827000000,{FD449C82-A259-4FAE-8584-6CA0255FAF68},,Long-Sleeve Logo Jersey, S,LJ-0192-S,False,True,Multi,4,3,38,4923,49,99,S,,,,0,S ,,U ,21,11,2011-05-31 00:00:00,,,
2014-02-08 10:01:36.827000000,{6A290063-A0CF-432A-8110-2EA0FDA14308},,Long-Sleeve Logo Jersey, M,LJ-0192-M,False,True,Multi,4,3,38,4923,49,99,M,,,,0,S ,,U ,21,11,2011-05-31 00:00:00,,,
2014-02-08 10:01:36.827000000,{34CF5EF5-C077-4EA0-914A-084814D5CBD5},,Long-Sleeve Logo Jersey, L,LJ-0192-L,False,True,Multi,4,3,38,4923,49,99,L,,,,0,S ,,U ,21,11,2011-05-31 00:00:00,,,
2014-02-08 10:01:36.827000000,{6EC47EC9-C041-4DDA-B686-2125D539CE9B},,Long-Sleeve Logo Jersey, XL,LJ-0192-X,False,True,Multi,4,3,38,4923,49,99,XL,,,,0,S ,,U ,21,11,2011-05-31 00:00:00,,,
2014-02-08 10:01:36.827000000,{052E4F8B-0A2A-46B2-9F42-10FEBCFAE416},,HL Road Frame - Red, 62,FR-R92R-62,True,True,Red,500,375,868,6342,1431,5,62,CM ,LB ,2,30,1,R ,H ,U ,14,6,2011-05-31 00:00:00,,,
2014-02-08 10:01:36.827000000,{A88D3B54-2CAE-43F2-8C6E-EA1D97B46A7C},,HL Road Frame - Red, 44,FR-R92R-44,True,True,Red,500,375,868,6342,1431,5,44,CM ,LB ,2,12,1,R ,H ,U ,14,6,2011-05-31 00:00:00,,,
2014-02-08 10:01:36.827000000,{07BEFC9A-7634-402B-B234-D7797733BAAF},,HL Road Frame - Red, 48,FR-R92R-48,True,True,Red,500,375,868,6342,1431,5,48,CM ,LB ,2,16,1,R ,H ,U ,14,6,2011-05-31 00:00:00,,,
2014-02-08 10:01:36.827000000,{FCFEA68F-310E-4E6E-9F99-BB17D011EBAE},,HL Road Frame - Red, 52,FR-R92R-52,True,True,Red,500,375,868,6342,1431,5,52,CM ,LB ,2,20,1,R ,H ,U ,14,6,2011-05-31 00:00:00,,,
2014-02-08 10:01:36.827000000,{56C85873-4993-41B4-8096-1067CFD7E4BD},,HL Road Frame - Red, 56,FR-R92R-56,True,True,Red,500,375,868,6342,1431,5,56,CM ,LB ,2,24,1,R ,H ,U ,14,6,2011-05-31 00:00:00,,,
2014-02-08 10:01:36.827000000,{2140F256-F705-4D67-975D-32DE03265838},,LL Road Frame - Black, 58,FR-R38B-58,True,True,Black,500,375,204,6251,337,22,58,CM ,LB ,2,46,1,R ,L ,U ,14,9,2011-05-31 00:00:00,,,
2014-02-08 10:01:36.827000000,{AA95E2A5-E7C4-4B74-B1EA-B52EE3B51537},,LL Road Frame - Black, 60,FR-R38B-60,True,True,Black,500,375,204,6251,337,22,60,CM ,LB ,2,48,1,R ,L ,U ,14,9,2011-05-31 00:00:00,,,
2014-02-08 10:01:36.827000000,{5247BE33-50BF-4527-8A30-A39AAE500A8E},,LL Road Frame - Black, 62,FR-R38B-62,True,True,Black,500,375,204,6251,337,22,62,CM ,LB ,2,50,1,R ,L ,U ,14,9,2011-05-31 00:00:00,,,
2014-02-08 10:01:36.827000000,{137D319D-44AD-42B2-AB61-60B9CE52B5F2},,LL Road Frame - Red, 44,FR-R38R-44,True,True,Red,500,375,187,1571,337,22,44,CM ,LB ,2,32,1,R ,L ,U ,14,9,2011-05-31 00:00:00,2013-05-29 00:00:00,,
2014-02-08 10:01:36.827000000,{35213547-275F-4767-805D-C8A4B8E13745},,LL Road Frame - Red, 48,FR-R38R-48,True,True,Red,500,375,187,1571,337,22,48,CM ,LB ,2,36,1,R ,L ,U ,14,9,2011-05-31 00:00:00,2013-05-29 00:00:00,,
2014-02-08 10:01:36.827000000,{C455E0B3-D716-419D-ABF0-7E03EFDD2E26},,LL Road Frame - Red, 52,FR-R38R-52,True,True,Red,500,375,187,1571,337,22,52,CM ,LB ,2,40,1,R ,L ,U ,14,9,2011-05-31 00:00:00,2013-05-29 00:00:00,,
2014-02-08 10:01:36.827000000,{799A56FF-5AD2-41B3-BFAC-528B477AD129},,LL Road Frame - Red, 58,FR-R38R-58,True,True,Red,500,375,187,1571,337,22,58,CM ,LB ,2,46,1,R ,L ,U ,14,9,2011-05-31 00:00:00,2013-05-29 00:00:00,,
2014-02-08 10:01:36.827000000,{1784BB14-D1F5-4B24-92DA-9127AD179302},,LL Road Frame - Red, 60,FR-R38R-60,True,True,Red,500,375,187,1571,337,22,60,CM ,LB ,2,48,1,R ,L ,U ,14,9,2011-05-31 00:00:00,2013-05-29 00:00:00,,
2014-02-08 10:01:36.827000000,{7E73AA1F-8569-4D87-9F80-AC2E513E0803},,LL Road Frame - Red, 62,FR-R38R-62,True,True,Red,500,375,187,1571,337,22,62,CM ,LB ,2,50,1,R ,L ,U ,14,9,2011-05-31 00:00:00,2013-05-29 00:00:00,,
2014-02-08 10:01:36.827000000,{459E041C-3234-409E-B4CD-81728F8A2398},,ML Road Frame - Red, 44,FR-R72R-44,True,True,Red,500,375,352,1394,594,83,44,CM ,LB ,2,22,1,R ,M ,U ,14,16,2011-05-31 00:00:00,2012-05-29 00:00:00,,
2014-02-08 10:01:36.827000000,{B673189C-C042-413B-8194-73BC44B0492C},,ML Road Frame - Red, 48,FR-R72R-48,True,True,Red,500,375,352,1394,594,83,48,CM ,LB ,2,26,1,R ,M ,U ,14,16,2011-05-31 00:00:00,2012-05-29 00:00:00,,
2014-02-08 10:01:36.827000000,{55EA276B-82D8-4CCB-9AB1-9B1B75B15A83},,ML Road Frame - Red, 52,FR-R72R-52,True,True,Red,500,375,352,1394,594,83,52,CM ,LB ,2,30,1,R ,M ,U ,14,16,2011-05-31 00:00:00,2012-05-29 00:00:00,,
2014-02-08 10:01:36.827000000,{DF4CE1E2-BA9A-4657-B999-CCFA6C55D9C1},,ML Road Frame - Red, 58,FR-R72R-58,True,True,Red,500,375,352,1394,594,83,58,CM ,LB ,2,36,1,R ,M ,U ,14,16,2011-05-31 00:00:00,2012-05-29 00:00:00,,
2014-02-08 10:01:36.827000000,{B2E48E8C-63A5-469A-BA4C-4F5EBB1104A4},,ML Road Frame - Red, 60,FR-R72R-60,True,True,Red,500,375,352,1394,594,83,60,CM ,LB ,2,38,1,R ,M ,U ,14,16,2011-05-31 00:00:00,2012-05-29 00:00:00,,
2014-02-08 10:01:36.827000000,{C9967889-F490-4A66-943A-BCE432E938D8},,LL Road Frame - Black, 44,FR-R38B-44,True,True,Black,500,375,204,6251,337,22,44,CM ,LB ,2,32,1,R ,L ,U ,14,9,2011-05-31 00:00:00,,,
2014-02-08 10:01:36.827000000,{3B5F29B6-A441-4FF7-A0FA-FAD10E2CEB4C},,LL Road Frame - Black, 48,FR-R38B-48,True,True,Black,500,375,204,6251,337,22,48,CM ,LB ,2,36,1,R ,L ,U ,14,9,2011-05-31 00:00:00,,,
2014-02-08 10:01:36.827000000,{18FC5D72-A012-4DC7-BB35-0D01A84D0219},,LL Road Frame - Black, 52,FR-R38B-52,True,True,Black,500,375,204,6251,337,22,52,CM ,LB ,2,40,1,R ,L ,U ,14,9,2011-05-31 00:00:00,,,
2014-02-08 10:01:36.827000000,{8AE32663-8D6F-457D-8343-5B181FEC43A7},,HL Mountain Frame - Silver, 42,FR-M94S-42,True,True,Silver,500,375,747,2002,1364,5,42,CM ,LB ,2,72,1,M ,H ,U ,12,5,2011-05-31 00:00:00,,,
2014-02-08 10:01:36.827000000,{1909C60C-C490-411D-B3E6-12DDD7832482},,HL Mountain Frame - Silver, 44,FR-M94S-44,True,True,Silver,500,375,706,811,1364,5,44,CM ,LB ,2,76,1,M ,H ,U ,12,5,2011-05-31 00:00:00,2012-05-29 00:00:00,,
2014-02-08 10:01:36.827000000,{B181EC1F-CA20-4724-B2EB-15F3E455142E},,HL Mountain Frame - Silver, 48,FR-M94S-52,True,True,Silver,500,375,706,811,1364,5,48,CM ,LB ,2,80,1,M ,H ,U ,12,5,2011-05-31 00:00:00,2012-05-29 00:00:00,,
2014-02-08 10:01:36.827000000,{A189D86E-D923-4336-B13D-A5DB6F426540},,HL Mountain Frame - Silver, 46,FR-M94S-46,True,True,Silver,500,375,747,2002,1364,5,46,CM ,LB ,2,84,1,M ,H ,U ,12,5,2011-05-31 00:00:00,,,
2014-02-08 10:01:36.827000000,{27DB28F8-5AB8-4091-B94E-6F1B2D8E7AB0},,HL Mountain Frame - Black, 42,FR-M94B-42,True,True,Black,500,375,739,041,1349,6,42,CM ,LB ,2,72,1,M ,H ,U ,12,5,2011-05-31 00:00:00,,,
2014-02-08 10:01:36.827000000,{CB443286-6B25-409F-A10B-1AD4EEB4BD4E},,HL Mountain Frame - Black, 44,FR-M94B-44,True,True,Black,500,375,699,0928,1349,6,44,CM ,LB ,2,76,1,M ,H ,U ,12,5,2011-05-31 00:00:00,2012-05-29 00:00:00,,
2014-02-08 10:01:36.827000000,{1FEE0573-6676-432D-8D6D-41BA9FAA5865},,HL Mountain Frame - Black, 48,FR-M94B-48,True,True,Black,500,375,699,0928,1349,6,48,CM ,LB ,2,80,1,M ,H ,U ,12,5,2011-05-31 00:00:00,2012-05-29 00:00:00,,
2014-02-08 10:01:36.827000000,{50ABEBCB-451E-42B9-8DBB-E5C4A34470E9},,HL Mountain Frame - Black, 46,FR-M94B-46,True,True,Black,500,375,739,041,1349,6,46,CM ,LB ,2,84,1,M ,H ,U ,12,5,2011-05-31 00:00:00,,,
2014-02-08 10:01:36.827000000,{0C548577-3171-4CE2-B9A0-1ED526849DE8},,HL Mountain Frame - Black, 38,FR-M94B-38,True,True,Black,500,375,739,041,1349,6,38,CM ,LB ,2,68,2,M ,H ,U ,12,5,2011-05-31 00:00:00,,,
2014-02-08 10:01:36.827000000,{F246ACAA-A80B-40EC-9208-02EDEF885129},,HL Mountain Frame - Silver, 38,FR-M94S-38,True,True,Silver,500,375,747,2002,1364,5,38,CM ,LB ,2,68,2,M ,H ,U ,12,5,2011-05-31 00:00:00,,,
2014-02-08 10:01:36.827000000,{BC621E1F-2553-4FDC-B22E-5E44A9003569},,Road-150 Red, 62,BK-R93R-62,True,True,Red,100,75,2171,2942,3578,27,62,CM ,LB ,15,00,4,R ,H ,U ,2,25,2011-05-31 00:00:00,2012-05-29 00:00:00,,
2014-02-08 10:01:36.827000000,{C19E1136-5DA4-4B40-8758-54A85D7EA494},,Road-150 Red, 44,BK-R93R-44,True,True,Red,100,75,2171,2942,3578,27,44,CM ,LB ,13,77,4,R ,H ,U ,2,25,2011-05-31 00:00:00,2012-05-29 00:00:00,,
2014-02-08 10:01:36.827000000,{D10B7CC1-455E-435B-A08F-EC5B1C5776E9},,Road-150 Red, 48,BK-R93R-48,True,True,Red,100,75,2171,2942,3578,27,48,CM ,LB ,14,13,4,R ,H ,U ,2,25,2011-05-31 00:00:00,2012-05-29 00:00:00,,
2014-02-08 10:01:36.827000000,{5E085BA0-3CD5-487F-85BB-79ED1C701F23},,Road-150 Red, 52,BK-R93R-52,True,True,Red,100,75,2171,2942,3578,27,52,CM ,LB ,14,42,4,R ,H ,U ,2,25,2011-05-31 00:00:00,2012-05-29 00:00:00,,
2014-02-08 10:01:36.827000000,{30819B88-F0D3-4E7A-8105-19F6FAC2CEFB},,Road-150 Red, 56,BK-R93R-56,True,True,Red,100,75,2171,2942,3578,27,56,CM ,LB ,14,68,4,R ,H ,U ,2,25,2011-05-31 00:00:00,2012-05-29 00:00:00,,
2014-02-08 10:01:36.827000000,{40D5EFFA-C0C4-479F-AF66-5F1BF8ED3BFB},,Road-450 Red, 58,BK-R68R-58,True,True,Red,100,75,884,7083,1457,99,58,CM ,LB ,17,79,4,R ,M ,U ,2,28,2011-05-31 00:00:00,2012-05-29 00:00:00,,
2014-02-08 10:01:36.827000000,{181A90CB-3678-490E-8418-78F73FB5343D},,Road-450 Red, 60,BK-R68R-60,True,True,Red,100,75,884,7083,1457,99,60,CM ,LB ,17,90,4,R ,M ,U ,2,28,2011-05-31 00:00:00,2012-05-29 00:00:00,,
2014-02-08 10:01:36.827000000,{F8B5E26A-3D33-4E39-B500-CC21A133062E},,Road-450 Red, 44,BK-R68R-44,True,True,Red,100,75,884,7083,1457,99,44,CM ,LB ,16,77,4,R ,M ,U ,2,28,2011-05-31 00:00:00,2012-05-29 00:00:00,,
2014-02-08 10:01:36.827000000,{C72C9978-0B04-46B3-9DE6-948FECA1C86E},,Road-450 Red, 48,BK-R68R-48,True,True,Red,100,75,884,7083,1457,99,48,CM ,LB ,17,13,4,R ,M ,U ,2,28,2011-05-31 00:00:00,2012-05-29 00:00:00,,
2014-02-08 10:01:36.827000000,{040A4B7D-4060-4507-AA92-7508B434797E},,Road-450 Red, 52,BK-R68R-52,True,True,Red,100,75,884,7083,1457,99,52,CM ,LB ,17,42,4,R ,M ,U ,2,28,2011-05-31 00:00:00,2012-05-29 00:00:00,,
2014-02-08 10:01:36.827000000,{6711D6BC-664F-4890-9F69-AF1DE321D055},,Road-650 Red, 58,BK-R50R-58,True,True,Red,100,75,486,7066,782,99,58,CM ,LB ,19,79,4,R ,L ,U ,2,30,2011-05-31 00:00:00,2013-05-29 00:00:00,,
2014-02-08 10:01:36.827000000,{664867E5-4AB3-4783-96F9-42EFDE92F49B},,Road-650 Red, 60,BK-R50R-60,True,True,Red,100,75,486,7066,782,99,60,CM ,LB ,19,90,4,R ,L ,U ,2,30,2011-05-31 00:00:00,2013-05-29 00:00:00,,
2014-02-08 10:01:36.827000000,{1DA14E09-6D71-4E2A-9EE9-1BDFDFD8A109},,Road-650 Red, 62,BK-R50R-62,True,True,Red,100,75,486,7066,782,99,62,CM ,LB ,20,00,4,R ,L ,U ,2,30,2011-05-31 00:00:00,2013-05-29 00:00:00,,
2014-02-08 10:01:36.827000000,{F247AAAE-12E3-4048-A37B-CCE4A8999E81},,Road-650 Red, 44,BK-R50R-44,True,True,Red,100,75,486,7066,782,99,44,CM ,LB ,18,77,4,R ,L ,U ,2,30,2011-05-31 00:00:00,2013-05-29 00:00:00,,
2014-02-08 10:01:36.827000000,{3DA5FA6E-9E0F-4896-AC10-948C27F4EB79},,Road-650 Red, 48,BK-R50R-48,True,True,Red,100,75,486,7066,782,99,48,CM ,LB ,19,13,4,R ,L ,U ,2,30,2011-05-31 00:00:00,2013-05-29 00:00:00,,
2014-02-08 10:01:36.827000000,{07CFE1EA-8A37-4D2A-835F-BC8D37E564AF},,Road-650 Red, 52,BK-R50R-52,True,True,Red,100,75,486,7066,782,99,52,CM ,LB ,19,42,4,R ,L ,U ,2,30,2011-05-31 00:00:00,2013-05-29 00:00:00,,
2014-02-08 10:01:36.827000000,{74645B12-3CE9-49A6-BD96-2CD814B37420},,Road-650 Black, 58,BK-R50B-58,True,True,Black,100,75,486,7066,782,99,58,CM ,LB ,19,79,4,R ,L ,U ,2,30,2011-05-31 00:00:00,2013-05-29 00:00:00,,
2014-02-08 10:01:36.827000000,{A2DB196D-6640-49EA-A84F-2E87CA6F50C6},,Road-650 Black, 60,BK-R50B-60,True,True,Black,100,75,486,7066,782,99,60,CM ,LB ,19,90,4,R ,L ,U ,2,30,2011-05-31 00:00:00,2013-05-29 00:00:00,,
2014-02-08 10:01:36.827000000,{C82A8309-63D3-4C0C-AD71-E91272397095},,Road-650 Black, 62,BK-R50B-62,True,True,Black,100,75,486,7066,782,99,62,CM ,LB ,20,00,4,R ,L ,U ,2,30,2011-05-31 00:00:00,2013-05-29 00:00:00,,
2014-02-08 10:01:36.827000000,{11D563AC-115C-4F0D-A1E5-E946EEE8B38B},,Road-650 Black, 44,BK-R50B-44,True,True,Black,100,75,486,7066,782,99,44,CM ,LB ,18,77,4,R ,L ,U ,2,30,2011-05-31 00:00:00,2013-05-29 00:00:00,,
2014-02-08 10:01:36.827000000,{A7E2179E-137C-497E-A5E6-C9EA64935FB0},,Road-650 Black, 48,BK-R50B-48,True,True,Black,100,75,486,7066,782,99,48,CM ,LB ,19,13,4,R ,L ,U ,2,30,2011-05-31 00:00:00,2013-05-29 00:00:00,,
2014-02-08 10:01:36.827000000,{136E2865-E0DA-4624-963A-31349279AB1A},,Road-650 Black, 52,BK-R50B-52,True,True,Black,100,75,486,7066,782,99,52,CM ,LB ,19,42,4,R ,L ,U ,2,30,2011-05-31 00:00:00,2013-05-29 00:00:00,,
2014-02-08 10:01:36.827000000,{CA74B54E-FC30-4464-8B83-019BFD1B2DBB},,Mountain-100 Silver, 38,BK-M82S-38,True,True,Silver,100,75,1912,1544,3399,99,38,CM ,LB ,20,35,4,M ,H ,U ,1,19,2011-05-31 00:00:00,2012-05-29 00:00:00,,
2014-02-08 10:01:36.827000000,{BBFFF5A5-4BDC-49A9-A5AD-7584ADFFE808},,Mountain-100 Silver, 42,BK-M82S-42,True,True,Silver,100,75,1912,1544,3399,99,42,CM ,LB ,20,77,4,M ,H ,U ,1,19,2011-05-31 00:00:00,2012-05-29 00:00:00,,
2014-02-08 10:01:36.827000000,{155FD77E-D6D6-43F0-8A5B-4A8305EB45CD},,Mountain-100 Silver, 44,BK-M82S-44,True,True,Silver,100,75,1912,1544,3399,99,44,CM ,LB ,21,13,4,M ,H ,U ,1,19,2011-05-31 00:00:00,2012-05-29 00:00:00,,
2014-02-08 10:01:36.827000000,{BA5551DF-C9EE-4B43-B3CA-8C19D0F9384D},,Mountain-100 Silver, 48,BK-M82S-48,True,True,Silver,100,75,1912,1544,3399,99,48,CM ,LB ,21,42,4,M ,H ,U ,1,19,2011-05-31 00:00:00,2012-05-29 00:00:00,,
2014-02-08 10:01:36.827000000,{DEA33347-FCD3-4346-AA0F-068CD6B3AD06},,Mountain-100 Black, 38,BK-M82B-38,True,True,Black,100,75,1898,0944,3374,99,38,CM ,LB ,20,35,4,M ,H ,U ,1,19,2011-05-31 00:00:00,2012-05-29 00:00:00,,
2014-02-08 10:01:36.827000000,{02935111-A546-4C6D-941F-BE12D42C158E},,Mountain-100 Black, 42,BK-M82B-42,True,True,Black,100,75,1898,0944,3374,99,42,CM ,LB ,20,77,4,M ,H ,U ,1,19,2011-05-31 00:00:00,2012-05-29 00:00:00,,
2014-02-08 10:01:36.827000000,{7920BC3B-8FD4-4610-93D2-E693A66B6474},,Mountain-100 Black, 44,BK-M82B-44,True,True,Black,100,75,1898,0944,3374,99,44,CM ,LB ,21,13,4,M ,H ,U ,1,19,2011-05-31 00:00:00,2012-05-29 00:00:00,,
2014-02-08 10:01:36.827000000,{1B486300-7E64-4C5D-A9BA-A8368E20C5A0},,Mountain-100 Black, 48,BK-M82B-48,True,True,Black,100,75,1898,0944,3374,99,48,CM ,LB ,21,42,4,M ,H ,U ,1,19,2011-05-31 00:00:00,2012-05-29 00:00:00,,
2014-02-08 10:01:36.827000000,{3A45D835-ABAE-4806-AC03-C53ABCD3B974},,Mountain-200 Silver, 38,BK-M68S-38,True,True,Silver,100,75,1265,6195,2319,99,38,CM ,LB ,23,35,4,M ,H ,U ,1,20,2012-05-30 00:00:00,,,
2014-02-08 10:01:36.827000000,{CE4849B4-56E6-4B50-808B-9BDE67CC4704},,Mountain-200 Silver, 42,BK-M68S-42,True,True,Silver,100,75,1265,6195,2319,99,42,CM ,LB ,23,77,4,M ,H ,U ,1,20,2012-05-30 00:00:00,,,
2014-02-08 10:01:36.827000000,{20799030-420C-496A-9922-09189C2B457E},,Mountain-200 Silver, 46,BK-M68S-46,True,True,Silver,100,75,1265,6195,2319,99,46,CM ,LB ,24,13,4,M ,H ,U ,1,20,2012-05-30 00:00:00,,,
2014-02-08 10:01:36.827000000,{82CB8F9B-B8BB-4841-98D3-BCDB807C4DD8},,Mountain-200 Black, 38,BK-M68B-38,True,True,Black,100,75,1251,9813,2294,99,38,CM ,LB ,23,35,4,M ,H ,U ,1,20,2012-05-30 00:00:00,,,
2014-02-08 10:01:36.827000000,{2B0AF5B9-7571-4621-B760-47DF599F9650},,Mountain-200 Black, 42,BK-M68B-42,True,True,Black,100,75,1251,9813,2294,99,42,CM ,LB ,23,77,4,M ,H ,U ,1,20,2012-05-30 00:00:00,,,
2014-02-08 10:01:36.827000000,{33F42284-E216-4B98-BA48-B4EE18A01FA0},,Mountain-200 Black, 46,BK-M68B-46,True,True,Black,100,75,1251,9813,2294,99,46,CM ,LB ,24,13,4,M ,H ,U ,1,20,2012-05-30 00:00:00,,,
2014-02-08 10:01:36.827000000,{F06C2CBF-0901-4C08-80ED-FB4E87171B3B},,Mountain-300 Black, 38,BK-M47B-38,True,True,Black,100,75,598,4354,1079,99,38,CM ,LB ,25,35,4,M ,M ,U ,1,21,2012-05-30 00:00:00,2013-05-29 00:00:00,,
2014-02-08 10:01:36.827000000,{580D4322-BE03-4C91-83D2-EE33EC6008AB},,Mountain-300 Black, 40,BK-M47B-40,True,True,Black,100,75,598,4354,1079,99,40,CM ,LB ,25,77,4,M ,M ,U ,1,21,2012-05-30 00:00:00,2013-05-29 00:00:00,,
2014-02-08 10:01:36.827000000,{07C2A548-0452-47B4-9DCE-6EDB0A30C85E},,Mountain-300 Black, 44,BK-M47B-44,True,True,Black,100,75,598,4354,1079,99,44,CM ,LB ,26,13,4,M ,M ,U ,1,21,2012-05-30 00:00:00,2013-05-29 00:00:00,,
2014-02-08 10:01:36.827000000,{16078DBE-388D-4C18-AA8F-0C8F48035468},,Mountain-300 Black, 48,BK-M47B-48,True,True,Black,100,75,598,4354,1079,99,48,CM ,LB ,26,42,4,M ,M ,U ,1,21,2012-05-30 00:00:00,2013-05-29 00:00:00,,
2014-02-08 10:01:36.827000000,{0AA71AD6-AFAF-43C6-9745-35D815B50A5B},,Road-250 Red, 44,BK-R89R-44,True,True,Red,100,75,1518,7864,2443,35,44,CM ,LB ,14,77,4,R ,H ,U ,2,26,2012-05-30 00:00:00,2013-05-29 00:00:00,,
2014-02-08 10:01:36.827000000,{115DDADE-70E3-43F9-80DC-638DAEA271C4},,Road-250 Red, 48,BK-R89R-48,True,True,Red,100,75,1518,7864,2443,35,48,CM ,LB ,15,13,4,R ,H ,U ,2,26,2012-05-30 00:00:00,2013-05-29 00:00:00,,
2014-02-08 10:01:36.827000000,{C9FD1DF4-9512-420A-B379-067108033B75},,Road-250 Red, 52,BK-R89R-52,True,True,Red,100,75,1518,7864,2443,35,52,CM ,LB ,15,42,4,R ,H ,U ,2,26,2012-05-30 00:00:00,2013-05-29 00:00:00,,
2014-02-08 10:01:36.827000000,{DF629C11-8D8B-4774-9D52-ECB64DC95212},,Road-250 Red, 58,BK-R89R-58,True,True,Red,100,75,1554,9479,2443,35,58,CM ,LB ,15,79,4,R ,H ,U ,2,26,2012-05-30 00:00:00,,,
2014-02-08 10:01:36.827000000,{1FF419B5-52AF-4F7E-AEAE-4FEC5E99DE35},,Road-250 Black, 44,BK-R89B-44,True,True,Black,100,75,1554,9479,2443,35,44,CM ,LB ,14,77,4,R ,H ,U ,2,26,2012-05-30 00:00:00,,,
2014-02-08 10:01:36.827000000,{9D165DDF-8F5D-41C7-9BB8-13F41A3D1F62},,Road-250 Black, 48,BK-R89B-48,True,True,Black,100,75,1554,9479,2443,35,48,CM ,LB ,15,13,4,R ,H ,U ,2,26,2012-05-30 00:00:00,,,
2014-02-08 10:01:36.827000000,{74FE3957-CBC3-450A-AB92-849BD13530E2},,Road-250 Black, 52,BK-R89B-52,True,True,Black,100,75,1554,9479,2443,35,52,CM ,LB ,15,42,4,R ,H ,U ,2,26,2012-05-30 00:00:00,,,
2014-02-08 10:01:36.827000000,{1C530FE8-A169-4ADC-B3DC-B11A48245E63},,Road-250 Black, 58,BK-R89B-58,True,True,Black,100,75,1554,9479,2443,35,58,CM ,LB ,15,68,4,R ,H ,U ,2,26,2012-05-30 00:00:00,,,
2014-02-08 10:01:36.827000000,{AAD81532-A572-49A5-83C3-DFA9E3B4FEA6},,Road-550-W Yellow, 38,BK-R64Y-38,True,True,Yellow,100,75,713,0798,1120,49,38,CM ,LB ,17,35,4,R ,M ,W ,2,29,2012-05-30 00:00:00,,,
2014-02-08 10:01:36.827000000,{A35A1C35-C128-4697-951E-4199062E78F3},,Road-550-W Yellow, 40,BK-R64Y-40,True,True,Yellow,100,75,713,0798,1120,49,40,CM ,LB ,17,77,4,R ,M ,W ,2,29,2012-05-30 00:00:00,,,
2014-02-08 10:01:36.827000000,{A359AB09-16F2-4726-A60F-0DFDB1C9527E},,Road-550-W Yellow, 42,BK-R64Y-42,True,True,Yellow,100,75,713,0798,1120,49,42,CM ,LB ,18,13,4,R ,M ,W ,2,29,2012-05-30 00:00:00,,,
2014-02-08 10:01:36.827000000,{0A7028FB-FF06-4D38-AAA1-B64816278165},,Road-550-W Yellow, 44,BK-R64Y-44,True,True,Yellow,100,75,713,0798,1120,49,44,CM ,LB ,18,42,4,R ,M ,W ,2,29,2012-05-30 00:00:00,,,
