﻿<Cube xmlns:xsd="http://www.w3.org/2001/XMLSchema" xmlns:xsi="http://www.w3.org/2001/XMLSchema-instance" xmlns:ddl2="http://schemas.microsoft.com/analysisservices/2003/engine/2" xmlns:ddl2_2="http://schemas.microsoft.com/analysisservices/2003/engine/2/2" xmlns:ddl100_100="http://schemas.microsoft.com/analysisservices/2008/engine/100/100" xmlns:ddl200="http://schemas.microsoft.com/analysisservices/2010/engine/200" xmlns:ddl200_200="http://schemas.microsoft.com/analysisservices/2010/engine/200/200" xmlns:ddl300="http://schemas.microsoft.com/analysisservices/2011/engine/300" xmlns:ddl300_300="http://schemas.microsoft.com/analysisservices/2011/engine/300/300" xmlns:ddl400="http://schemas.microsoft.com/analysisservices/2012/engine/400" xmlns:ddl400_400="http://schemas.microsoft.com/analysisservices/2012/engine/400/400" xmlns:ddl500="http://schemas.microsoft.com/analysisservices/2013/engine/500" xmlns:ddl500_500="http://schemas.microsoft.com/analysisservices/2013/engine/500/500" xmlns:dwd="http://schemas.microsoft.com/DataWarehouse/Designer/1.0" dwd:design-time-name="8542dc57-afbb-4f36-b037-f0f0985a4b26" xmlns="http://schemas.microsoft.com/analysisservices/2003/engine">
  <ID>AdventureWorksDW</ID>
  <Name>AdventureWorksDW</Name>
  <CreatedTimestamp>0001-01-01T00:00:00Z</CreatedTimestamp>
  <LastSchemaUpdate>0001-01-01T00:00:00Z</LastSchemaUpdate>
  <Annotations>
    <Annotation>
      <Name>http://schemas.microsoft.com/DataWarehouse/Designer/1.0:DiagramLayout</Name>
      <Value>
        <dds xmlns="">
          <diagram fontclsid="{0BE35203-8F91-11CE-9DE3-00AA004BB851}" mouseiconclsid="{0BE35204-8F91-11CE-9DE3-00AA004BB851}" defaultlayout="MSDDS.Rectilinear" defaultlineroute="MSDDS.Rectilinear" version="7" nextobject="16" scale="100" pagebreakanchorx="0" pagebreakanchory="0" pagebreaksizex="0" pagebreaksizey="0" scrollleft="-5720" scrolltop="2733" gridx="150" gridy="150" marginx="5000" marginy="5000" zoom="75" x="22066" y="13441" backcolor="2434342" defaultpersistence="2" PrintPageNumbersMode="3" PrintMarginTop="0" PrintMarginBottom="635" PrintMarginLeft="0" PrintMarginRight="0" marqueeselectionmode="0" mousepointer="0" snaptogrid="0" autotypeannotation="1" showscrollbars="1" viewpagebreaks="0" donotforceconnectorsbehindshapes="1" backpictureclsid="{00000000-0000-0000-0000-000000000000}">
            <font>
              <ddsxmlobjectstreamwrapper binary="01cc0000900144420100065461686f6d61" />
            </font>
            <mouseicon>
              <ddsxmlobjectstreamwrapper binary="6c74000000000000" />
            </mouseicon>
          </diagram>
          <layoutmanager>
            <ddsxmlobj />
          </layoutmanager>
          <ddscontrol controlprogid="DdsShapes.DdsObjectManagedBridge.3" tooltip="FactInternetSales" left="6336" top="7400" logicalid="1" controlid="1" masterid="0" hint1="0" hint2="0" width="4101" height="5000" noresize="0" nomove="0" nodefaultattachpoints="0" autodrag="1" usedefaultiddshape="1" selectable="1" showselectionhandles="1" allownudging="1" isannotation="0" dontautolayout="0" groupcollapsed="0" tabstop="1" visible="1" snaptogrid="0">
            <control>
              <ddsxmlobjectstreaminitwrapper binary="000a00000510000088130000" />
            </control>
            <layoutobject>
              <ddsxmlobj>
                <property name="LogicalObject" value="dbo_FactInternetSales" vartype="8" />
              </ddsxmlobj>
            </layoutobject>
            <shape groupshapeid="0" groupnode="0" />
          </ddscontrol>
          <ddscontrol controlprogid="DdsShapes.DdsObjectManagedBridge.3" tooltip="DimSalesTerritory" left="12837" top="11814" logicalid="2" controlid="2" masterid="0" hint1="0" hint2="0" width="4498" height="3572" noresize="0" nomove="0" nodefaultattachpoints="0" autodrag="1" usedefaultiddshape="1" selectable="1" showselectionhandles="1" allownudging="1" isannotation="0" dontautolayout="0" groupcollapsed="0" tabstop="1" visible="1" snaptogrid="0">
            <control>
              <ddsxmlobjectstreaminitwrapper binary="000a000092110000f40d0000" />
            </control>
            <layoutobject>
              <ddsxmlobj>
                <property name="LogicalObject" value="dbo_DimSalesTerritory" vartype="8" />
              </ddsxmlobj>
            </layoutobject>
            <shape groupshapeid="0" groupnode="0" />
          </ddscontrol>
          <ddscontrol controlprogid="DdsShapes.DdsObjectManagedBridge.3" tooltip="DimDate" left="12837" top="4414" logicalid="3" controlid="3" masterid="0" hint1="0" hint2="0" width="4524" height="5000" noresize="0" nomove="0" nodefaultattachpoints="0" autodrag="1" usedefaultiddshape="1" selectable="1" showselectionhandles="1" allownudging="1" isannotation="0" dontautolayout="0" groupcollapsed="0" tabstop="1" visible="1" snaptogrid="0">
            <control>
              <ddsxmlobjectstreaminitwrapper binary="000a0000ac11000088130000" />
            </control>
            <layoutobject>
              <ddsxmlobj>
                <property name="LogicalObject" value="dbo_DimDate" vartype="8" />
              </ddsxmlobj>
            </layoutobject>
            <shape groupshapeid="0" groupnode="0" />
          </ddscontrol>
          <ddscontrol controlprogid="DdsShapes.DdsObjectManagedBridge.3" tooltip="DimCustomer" left="9772" top="17786" logicalid="4" controlid="4" masterid="0" hint1="0" hint2="0" width="4207" height="5000" noresize="0" nomove="0" nodefaultattachpoints="0" autodrag="1" usedefaultiddshape="1" selectable="1" showselectionhandles="1" allownudging="1" isannotation="0" dontautolayout="0" groupcollapsed="0" tabstop="1" visible="1" snaptogrid="0">
            <control>
              <ddsxmlobjectstreaminitwrapper binary="000a00006f10000088130000" />
            </control>
            <layoutobject>
              <ddsxmlobj>
                <property name="LogicalObject" value="dbo_DimCustomer" vartype="8" />
              </ddsxmlobj>
            </layoutobject>
            <shape groupshapeid="0" groupnode="0" />
          </ddscontrol>
          <ddscontrol controlprogid="DdsShapes.DdsObjectManagedBridge.3" tooltip="DimPromotion" left="2795" top="17786" logicalid="5" controlid="5" masterid="0" hint1="0" hint2="0" width="4577" height="5000" noresize="0" nomove="0" nodefaultattachpoints="0" autodrag="1" usedefaultiddshape="1" selectable="1" showselectionhandles="1" allownudging="1" isannotation="0" dontautolayout="0" groupcollapsed="0" tabstop="1" visible="1" snaptogrid="0">
            <control>
              <ddsxmlobjectstreaminitwrapper binary="000a0000e111000088130000" />
            </control>
            <layoutobject>
              <ddsxmlobj>
                <property name="LogicalObject" value="dbo_DimPromotion" vartype="8" />
              </ddsxmlobj>
            </layoutobject>
            <shape groupshapeid="0" groupnode="0" />
          </ddscontrol>
          <ddscontrol controlprogid="DdsShapes.DdsObjectManagedBridge.3" tooltip="DimCurrency" left="20" top="8749" logicalid="6" controlid="6" masterid="0" hint1="0" hint2="0" width="3916" height="2302" noresize="0" nomove="0" nodefaultattachpoints="0" autodrag="1" usedefaultiddshape="1" selectable="1" showselectionhandles="1" allownudging="1" isannotation="0" dontautolayout="0" groupcollapsed="0" tabstop="1" visible="1" snaptogrid="0">
            <control>
              <ddsxmlobjectstreaminitwrapper binary="000a00004c0f0000fe080000" />
            </control>
            <layoutobject>
              <ddsxmlobj>
                <property name="LogicalObject" value="dbo_DimCurrency" vartype="8" />
              </ddsxmlobj>
            </layoutobject>
            <shape groupshapeid="0" groupnode="0" />
          </ddscontrol>
          <ddscontrol controlprogid="DdsShapes.DdsObjectManagedBridge.3" tooltip="DimProduct" left="6071" top="0" logicalid="7" controlid="7" masterid="0" hint1="0" hint2="0" width="4366" height="5000" noresize="0" nomove="0" nodefaultattachpoints="0" autodrag="1" usedefaultiddshape="1" selectable="1" showselectionhandles="1" allownudging="1" isannotation="0" dontautolayout="0" groupcollapsed="0" tabstop="1" visible="1" snaptogrid="0">
            <control>
              <ddsxmlobjectstreaminitwrapper binary="000a00000e11000088130000" />
            </control>
            <layoutobject>
              <ddsxmlobj>
                <property name="LogicalObject" value="dbo_DimProduct" vartype="8" />
              </ddsxmlobj>
            </layoutobject>
            <shape groupshapeid="0" groupnode="0" />
          </ddscontrol>
          <ddscontrol controlprogid="MSDDS.Polyline" left="4684" top="12100" logicalid="8" controlid="8" masterid="0" hint1="0" hint2="0" width="2902" height="6186" noresize="0" nomove="0" nodefaultattachpoints="1" autodrag="0" usedefaultiddshape="0" selectable="1" showselectionhandles="0" allownudging="1" isannotation="0" dontautolayout="0" groupcollapsed="0" tabstop="1" visible="1" snaptogrid="0">
            <control>
              <ddsxmlobj>
                <polyline endtypedst="6" endtypesrc="3" usercolor="15856113" linestyle="0" linerender="1" customendtypedstid="0" customendtypesrcid="0" adornsvisible="1" />
              </ddsxmlobj>
            </control>
            <layoutobject>
              <ddsxmlobj>
                <property name="LogicalObject" value="dataSet.Relations[FK_FactInternetSales_DimPromotion]" vartype="8" />
                <property name="Virtual" value="0" vartype="11" />
                <property name="VisibleAP" value="0" vartype="3" />
              </ddsxmlobj>
            </layoutobject>
            <connector lineroutestyle="MSDDS.Rectilinear" sourceid="5" destid="1" sourceattachpoint="6" destattachpoint="3" segmenteditmode="0" bendpointeditmode="0" bendpointvisibility="0" relatedid="0" virtual="0">
              <point x="5083" y="17786" />
              <point x="5083" y="15093" />
              <point x="7286" y="15093" />
              <point x="7286" y="12400" />
            </connector>
          </ddscontrol>
          <ddscontrol controlprogid="MSDDS.Polyline" left="10137" top="6515" logicalid="9" controlid="9" masterid="0" hint1="0" hint2="0" width="3000" height="3135" noresize="0" nomove="0" nodefaultattachpoints="1" autodrag="0" usedefaultiddshape="0" selectable="1" showselectionhandles="0" allownudging="1" isannotation="0" dontautolayout="0" groupcollapsed="0" tabstop="1" visible="1" snaptogrid="0">
            <control>
              <ddsxmlobj>
                <polyline endtypedst="6" endtypesrc="3" usercolor="15856113" linestyle="0" linerender="1" customendtypedstid="0" customendtypesrcid="0" adornsvisible="1" />
              </ddsxmlobj>
            </control>
            <layoutobject>
              <ddsxmlobj>
                <property name="LogicalObject" value="dataSet.Relations[FK_FactInternetSales_DimDate]" vartype="8" />
                <property name="Virtual" value="0" vartype="11" />
                <property name="VisibleAP" value="0" vartype="3" />
              </ddsxmlobj>
            </layoutobject>
            <connector lineroutestyle="MSDDS.Rectilinear" sourceid="3" destid="1" sourceattachpoint="22" destattachpoint="21" segmenteditmode="0" bendpointeditmode="0" bendpointvisibility="0" relatedid="0" virtual="0">
              <point x="12837" y="6914" />
              <point x="11637" y="6914" />
              <point x="11637" y="9350" />
              <point x="10437" y="9350" />
            </connector>
          </ddscontrol>
          <ddscontrol controlprogid="MSDDS.Polyline" left="10137" top="10150" logicalid="10" controlid="10" masterid="0" hint1="0" hint2="0" width="3000" height="3850" noresize="0" nomove="0" nodefaultattachpoints="1" autodrag="0" usedefaultiddshape="0" selectable="1" showselectionhandles="0" allownudging="1" isannotation="0" dontautolayout="0" groupcollapsed="0" tabstop="1" visible="1" snaptogrid="0">
            <control>
              <ddsxmlobj>
                <polyline endtypedst="6" endtypesrc="3" usercolor="15856113" linestyle="0" linerender="1" customendtypedstid="0" customendtypesrcid="0" adornsvisible="1" />
              </ddsxmlobj>
            </control>
            <layoutobject>
              <ddsxmlobj>
                <property name="LogicalObject" value="dataSet.Relations[FK_FactInternetSales_DimSalesTerritory]" vartype="8" />
                <property name="Virtual" value="0" vartype="11" />
                <property name="VisibleAP" value="0" vartype="3" />
              </ddsxmlobj>
            </layoutobject>
            <connector lineroutestyle="MSDDS.Rectilinear" sourceid="2" destid="1" sourceattachpoint="20" destattachpoint="25" segmenteditmode="0" bendpointeditmode="0" bendpointvisibility="0" relatedid="0" virtual="0">
              <point x="12837" y="13600" />
              <point x="11637" y="13600" />
              <point x="11637" y="10450" />
              <point x="10437" y="10450" />
            </connector>
          </ddscontrol>
          <ddscontrol controlprogid="MSDDS.Polyline" left="8636" top="12100" logicalid="11" controlid="11" masterid="0" hint1="0" hint2="0" width="3639" height="6186" noresize="0" nomove="0" nodefaultattachpoints="1" autodrag="0" usedefaultiddshape="0" selectable="1" showselectionhandles="0" allownudging="1" isannotation="0" dontautolayout="0" groupcollapsed="0" tabstop="1" visible="1" snaptogrid="0">
            <control>
              <ddsxmlobj>
                <polyline endtypedst="6" endtypesrc="3" usercolor="15856113" linestyle="0" linerender="1" customendtypedstid="0" customendtypesrcid="0" adornsvisible="1" />
              </ddsxmlobj>
            </control>
            <layoutobject>
              <ddsxmlobj>
                <property name="LogicalObject" value="dataSet.Relations[FK_FactInternetSales_DimCustomer]" vartype="8" />
                <property name="Virtual" value="0" vartype="11" />
                <property name="VisibleAP" value="0" vartype="3" />
              </ddsxmlobj>
            </layoutobject>
            <connector lineroutestyle="MSDDS.Rectilinear" sourceid="4" destid="1" sourceattachpoint="6" destattachpoint="9" segmenteditmode="0" bendpointeditmode="0" bendpointvisibility="0" relatedid="0" virtual="0">
              <point x="11875" y="17786" />
              <point x="11875" y="15093" />
              <point x="8936" y="15093" />
              <point x="8936" y="12400" />
            </connector>
          </ddscontrol>
          <ddscontrol controlprogid="MSDDS.Polyline" left="3636" top="9501" logicalid="12" controlid="12" masterid="0" hint1="0" hint2="0" width="3000" height="799" noresize="0" nomove="0" nodefaultattachpoints="1" autodrag="0" usedefaultiddshape="0" selectable="1" showselectionhandles="0" allownudging="1" isannotation="0" dontautolayout="0" groupcollapsed="0" tabstop="1" visible="1" snaptogrid="0">
            <control>
              <ddsxmlobj>
                <polyline endtypedst="6" endtypesrc="3" usercolor="15856113" linestyle="0" linerender="1" customendtypedstid="0" customendtypesrcid="0" adornsvisible="1" />
              </ddsxmlobj>
            </control>
            <layoutobject>
              <ddsxmlobj>
                <property name="LogicalObject" value="dataSet.Relations[FK_FactInternetSales_DimCurrency]" vartype="8" />
                <property name="Virtual" value="0" vartype="11" />
                <property name="VisibleAP" value="0" vartype="3" />
              </ddsxmlobj>
            </layoutobject>
            <connector lineroutestyle="MSDDS.Rectilinear" sourceid="6" destid="1" sourceattachpoint="17" destattachpoint="22" segmenteditmode="0" bendpointeditmode="0" bendpointvisibility="0" relatedid="0" virtual="0">
              <point x="3936" y="9900" />
              <point x="6336" y="9900" />
            </connector>
          </ddscontrol>
          <ddscontrol controlprogid="MSDDS.Polyline" left="7855" top="4501" logicalid="13" controlid="13" masterid="0" hint1="0" hint2="0" width="831" height="3199" noresize="0" nomove="0" nodefaultattachpoints="1" autodrag="0" usedefaultiddshape="0" selectable="1" showselectionhandles="0" allownudging="1" isannotation="0" dontautolayout="0" groupcollapsed="0" tabstop="1" visible="1" snaptogrid="0">
            <control>
              <ddsxmlobj>
                <polyline endtypedst="6" endtypesrc="3" usercolor="15856113" linestyle="0" linerender="1" customendtypedstid="0" customendtypesrcid="0" adornsvisible="1" />
              </ddsxmlobj>
            </control>
            <layoutobject>
              <ddsxmlobj>
                <property name="LogicalObject" value="dataSet.Relations[FK_FactInternetSales_DimProduct]" vartype="8" />
                <property name="Virtual" value="0" vartype="11" />
                <property name="VisibleAP" value="0" vartype="3" />
              </ddsxmlobj>
            </layoutobject>
            <connector lineroutestyle="MSDDS.Rectilinear" sourceid="7" destid="1" sourceattachpoint="7" destattachpoint="6" segmenteditmode="0" bendpointeditmode="0" bendpointvisibility="0" relatedid="0" virtual="0">
              <point x="8254" y="5000" />
              <point x="8254" y="6200" />
              <point x="8386" y="6200" />
              <point x="8386" y="7400" />
            </connector>
          </ddscontrol>
          <ddscontrol controlprogid="MSDDS.Polyline" left="10137" top="8165" logicalid="14" controlid="14" masterid="0" hint1="0" hint2="0" width="3000" height="2035" noresize="0" nomove="0" nodefaultattachpoints="1" autodrag="0" usedefaultiddshape="0" selectable="1" showselectionhandles="0" allownudging="1" isannotation="0" dontautolayout="0" groupcollapsed="0" tabstop="1" visible="1" snaptogrid="0">
            <control>
              <ddsxmlobj>
                <polyline endtypedst="6" endtypesrc="3" usercolor="15856113" linestyle="0" linerender="1" customendtypedstid="0" customendtypesrcid="0" adornsvisible="1" />
              </ddsxmlobj>
            </control>
            <layoutobject>
              <ddsxmlobj>
                <property name="LogicalObject" value="dataSet.Relations[FK_FactInternetSales_DimDate2]" vartype="8" />
                <property name="Virtual" value="0" vartype="11" />
                <property name="VisibleAP" value="0" vartype="3" />
              </ddsxmlobj>
            </layoutobject>
            <connector lineroutestyle="MSDDS.Rectilinear" sourceid="3" destid="1" sourceattachpoint="28" destattachpoint="23" segmenteditmode="0" bendpointeditmode="0" bendpointvisibility="0" relatedid="0" virtual="0">
              <point x="12837" y="8564" />
              <point x="11637" y="8564" />
              <point x="11637" y="9900" />
              <point x="10437" y="9900" />
            </connector>
          </ddscontrol>
          <ddscontrol controlprogid="MSDDS.Polyline" left="10137" top="4865" logicalid="15" controlid="15" masterid="0" hint1="0" hint2="0" width="3000" height="4235" noresize="0" nomove="0" nodefaultattachpoints="1" autodrag="0" usedefaultiddshape="0" selectable="1" showselectionhandles="0" allownudging="1" isannotation="0" dontautolayout="0" groupcollapsed="0" tabstop="1" visible="1" snaptogrid="0">
            <control>
              <ddsxmlobj>
                <polyline endtypedst="6" endtypesrc="3" usercolor="15856113" linestyle="0" linerender="1" customendtypedstid="0" customendtypesrcid="0" adornsvisible="1" />
              </ddsxmlobj>
            </control>
            <layoutobject>
              <ddsxmlobj>
                <property name="LogicalObject" value="dataSet.Relations[FK_FactInternetSales_DimDate1]" vartype="8" />
                <property name="Virtual" value="0" vartype="11" />
                <property name="VisibleAP" value="0" vartype="3" />
              </ddsxmlobj>
            </layoutobject>
            <connector lineroutestyle="MSDDS.Rectilinear" sourceid="3" destid="1" sourceattachpoint="16" destattachpoint="19" segmenteditmode="0" bendpointeditmode="0" bendpointvisibility="0" relatedid="0" virtual="0">
              <point x="12837" y="5264" />
              <point x="11637" y="5264" />
              <point x="11637" y="8800" />
              <point x="10437" y="8800" />
            </connector>
          </ddscontrol>
        </dds>
      </Value>
    </Annotation>
    <Annotation>
      <Name>http://schemas.microsoft.com/DataWarehouse/Designer/1.0:ShowFriendlyNames</Name>
      <Value>true</Value>
    </Annotation>
    <Annotation>
      <Name>http://schemas.microsoft.com/DataWarehouse/Designer/1.0:ShowRelationshipNames</Name>
      <Value>false</Value>
    </Annotation>
    <Annotation>
      <Name>http://schemas.microsoft.com/DataWarehouse/Designer/1.0:UseDiagramDefaultLayout</Name>
      <Value>true</Value>
    </Annotation>
    <Annotation>
      <Name>http://schemas.microsoft.com/DataWarehouse/Designer/1.0:DiagramViewPortLeft</Name>
      <Value>-5720</Value>
    </Annotation>
    <Annotation>
      <Name>http://schemas.microsoft.com/DataWarehouse/Designer/1.0:DiagramViewPortTop</Name>
      <Value>2733</Value>
    </Annotation>
    <Annotation>
      <Name>http://schemas.microsoft.com/DataWarehouse/Designer/1.0:DiagramBoundingLeft</Name>
      <Value>20</Value>
    </Annotation>
    <Annotation>
      <Name>http://schemas.microsoft.com/DataWarehouse/Designer/1.0:DiagramBoundingTop</Name>
      <Value>0</Value>
    </Annotation>
    <Annotation>
      <Name>http://schemas.microsoft.com/DataWarehouse/Designer/1.0:DiagramZoom</Name>
      <Value>75</Value>
    </Annotation>
  </Annotations>
  <LastProcessed>0001-01-01T00:00:00Z</LastProcessed>
  <State>Unprocessed</State>
  <Dimensions>
    <Dimension dwd:design-time-name="4ca438b4-ba28-4e0c-a107-786c1d708317">
      <ID>Fact Internet Sales</ID>
      <Name>Fact Internet Sales</Name>
      <DimensionID>Fact Internet Sales</DimensionID>
      <Attributes>
        <Attribute dwd:design-time-name="16be1225-157c-4ea3-a49e-dbcde4d457f7">
          <AttributeID>Sales Order Number</AttributeID>
        </Attribute>
        <Attribute dwd:design-time-name="049a6678-16f7-434b-b1b6-fceac1ad347b">
          <AttributeID>Promotion Key</AttributeID>
        </Attribute>
        <Attribute dwd:design-time-name="69f191e9-b2e1-44b0-b2f6-96d64bfd2d59">
          <AttributeID>Order Date Key</AttributeID>
        </Attribute>
        <Attribute dwd:design-time-name="8d202189-3487-4190-90c2-f2b4d8b38e75">
          <AttributeID>Sales Territory Key</AttributeID>
        </Attribute>
        <Attribute dwd:design-time-name="83d336ef-0733-46c4-b64f-41416fd6e897">
          <AttributeID>Customer Key</AttributeID>
        </Attribute>
        <Attribute dwd:design-time-name="4da71603-d8a2-4420-812c-110ad6a4b12c">
          <AttributeID>Currency Key</AttributeID>
        </Attribute>
        <Attribute dwd:design-time-name="c4aae7ae-20a8-417c-9aec-e407b0185348">
          <AttributeID>Product Key</AttributeID>
        </Attribute>
        <Attribute dwd:design-time-name="3b139cb7-50e6-4e96-809e-6ae82a3f1094">
          <AttributeID>Ship Date Key</AttributeID>
        </Attribute>
        <Attribute dwd:design-time-name="e046c549-c140-4e38-884c-8abbe7727a8b">
          <AttributeID>Due Date Key</AttributeID>
        </Attribute>
      </Attributes>
    </Dimension>
    <Dimension dwd:design-time-name="cbad9a07-78cd-44d9-9043-435af375bfaf">
      <ID>Dim Promotion</ID>
      <Name>Dim Promotion</Name>
      <DimensionID>Dim Promotion</DimensionID>
      <Attributes>
        <Attribute dwd:design-time-name="d2394337-929c-4114-82a1-cc6744a27275">
          <AttributeID>Promotion Key</AttributeID>
        </Attribute>
        <Attribute dwd:design-time-name="9d2b9069-37fd-4fd7-adf7-68877b61459a">
          <AttributeID>English Promotion Name</AttributeID>
        </Attribute>
        <Attribute dwd:design-time-name="7ac70e04-d290-4150-a408-afac13cc8c2e">
          <AttributeID>Start Date</AttributeID>
        </Attribute>
        <Attribute dwd:design-time-name="36a34760-f2af-4594-8028-4dbdebdcd5ce">
          <AttributeID>End Date</AttributeID>
        </Attribute>
      </Attributes>
      <Hierarchies>
        <Hierarchy dwd:design-time-name="b659248f-2c62-4b74-abc2-c383ddd5ae8f">
          <HierarchyID>Hierarchy</HierarchyID>
        </Hierarchy>
        <Hierarchy dwd:design-time-name="9645252f-a50f-41f1-ae00-00dce348e329">
          <HierarchyID>Hierarchy 1</HierarchyID>
        </Hierarchy>
        <Hierarchy dwd:design-time-name="e40c6ffc-a9fe-4f10-a6c1-3eb69fc66fdc">
          <HierarchyID>Hierarchy 2</HierarchyID>
        </Hierarchy>
      </Hierarchies>
    </Dimension>
    <Dimension dwd:design-time-name="b0158e5e-0dc7-48cd-a86d-2085edfb9d46">
      <ID>Order Date</ID>
      <Name>Order Date</Name>
      <DimensionID>Dim Date</DimensionID>
      <Attributes>
        <Attribute dwd:design-time-name="61fe31dd-9a71-4199-acc5-deb3f909c073">
          <AttributeID>Date Key</AttributeID>
        </Attribute>
      </Attributes>
    </Dimension>
    <Dimension dwd:design-time-name="2d230547-c540-42ef-9f41-f0e6f3764750">
      <ID>Dim Sales Territory</ID>
      <Name>Dim Sales Territory</Name>
      <DimensionID>Dim Sales Territory</DimensionID>
      <Attributes>
        <Attribute dwd:design-time-name="922ef8a1-074b-4841-b2e4-41e9b67f975e">
          <AttributeID>Sales Territory Key</AttributeID>
        </Attribute>
      </Attributes>
    </Dimension>
    <Dimension dwd:design-time-name="74cbf7b1-83c4-4223-8055-dbd053f5ff4a">
      <ID>Dim Customer</ID>
      <Name>Dim Customer</Name>
      <DimensionID>Dim Customer</DimensionID>
      <Attributes>
        <Attribute dwd:design-time-name="09a7057b-2173-4aa0-8ca0-15e161cda519">
          <AttributeID>Customer Key</AttributeID>
        </Attribute>
      </Attributes>
    </Dimension>
    <Dimension dwd:design-time-name="f50b2ebd-ca42-40c1-8712-7030599c7018">
      <ID>Dim Currency</ID>
      <Name>Dim Currency</Name>
      <DimensionID>Dim Currency</DimensionID>
      <Attributes>
        <Attribute dwd:design-time-name="d74b2a07-e8ad-40e3-b6ac-22a63e7bbc75">
          <AttributeID>Currency Key</AttributeID>
        </Attribute>
      </Attributes>
    </Dimension>
    <Dimension dwd:design-time-name="81493209-80de-48db-a1f2-dc0932ccf494">
      <ID>Dim Product</ID>
      <Name>Dim Product</Name>
      <DimensionID>Dim Product</DimensionID>
      <Attributes>
        <Attribute dwd:design-time-name="cc6c79b4-8b36-45dc-8458-93b64a1ee6dd">
          <AttributeID>Product Key</AttributeID>
        </Attribute>
      </Attributes>
    </Dimension>
    <Dimension dwd:design-time-name="05105175-967e-4461-bd40-807fffe13992">
      <ID>Ship Date</ID>
      <Name>Ship Date</Name>
      <DimensionID>Dim Date</DimensionID>
      <Attributes>
        <Attribute dwd:design-time-name="f124e8b2-977e-4500-b18b-5381456769d1">
          <AttributeID>Date Key</AttributeID>
        </Attribute>
      </Attributes>
    </Dimension>
    <Dimension dwd:design-time-name="ed3d2ec1-df02-4c9b-aa01-67a10fefaef4">
      <ID>Due Date</ID>
      <Name>Due Date</Name>
      <DimensionID>Dim Date</DimensionID>
      <Attributes>
        <Attribute dwd:design-time-name="f46284c8-99ad-4ea9-9b52-708030c0f481">
          <AttributeID>Date Key</AttributeID>
        </Attribute>
      </Attributes>
    </Dimension>
  </Dimensions>
  <MeasureGroups>
    <MeasureGroup dwd:design-time-name="aae46f9f-b9c8-4861-877e-ada1da0d6d70">
      <ID>Fact Internet Sales</ID>
      <Name>Fact Internet Sales</Name>
      <CreatedTimestamp>0001-01-01T00:00:00Z</CreatedTimestamp>
      <LastSchemaUpdate>0001-01-01T00:00:00Z</LastSchemaUpdate>
      <LastProcessed>0001-01-01T00:00:00Z</LastProcessed>
      <State>Unprocessed</State>
      <Measures>
        <Measure dwd:design-time-name="2c04dd8c-31d3-493c-a85f-b4aca356917a">
          <ID>Revision Number</ID>
          <Name>Revision Number</Name>
          <Source dwd:design-time-name="95cce585-ea10-478d-8d76-b23632261269">
            <DataType>UnsignedInt</DataType>
            <Source xsi:type="ColumnBinding" dwd:design-time-name="1e6117e5-4bbf-484f-903e-b3a7ffe2bade">
              <TableID>dbo_FactInternetSales</TableID>
              <ColumnID>RevisionNumber</ColumnID>
            </Source>
          </Source>
        </Measure>
        <Measure dwd:design-time-name="fe98038d-af3c-41dd-ad66-c4e139e4bc53">
          <ID>Order Quantity</ID>
          <Name>Order Quantity</Name>
          <Source dwd:design-time-name="2eeed053-6b6e-4d16-b06d-69e5e02c477a">
            <DataType>Integer</DataType>
            <Source xsi:type="ColumnBinding" dwd:design-time-name="249f52cf-9c7d-4be8-acfb-f76cb57fd974">
              <TableID>dbo_FactInternetSales</TableID>
              <ColumnID>OrderQuantity</ColumnID>
            </Source>
          </Source>
        </Measure>
        <Measure dwd:design-time-name="fbecccfa-8e7a-4517-a257-513fbd429ada">
          <ID>Unit Price</ID>
          <Name>Unit Price</Name>
          <Source dwd:design-time-name="a6bbe583-6fe7-41d6-ae68-4b5c447bde48">
            <DataType>Double</DataType>
            <Source xsi:type="ColumnBinding" dwd:design-time-name="42ebed6b-24ce-45e0-80f9-182db5fb649d">
              <TableID>dbo_FactInternetSales</TableID>
              <ColumnID>UnitPrice</ColumnID>
            </Source>
          </Source>
        </Measure>
        <Measure dwd:design-time-name="88ef4b2c-50b3-41ae-9d87-319a856eeb00">
          <ID>Extended Amount</ID>
          <Name>Extended Amount</Name>
          <Source dwd:design-time-name="c88192eb-dd01-410b-ab74-f523f7388f3a">
            <DataType>Double</DataType>
            <Source xsi:type="ColumnBinding" dwd:design-time-name="24ec8282-8084-4484-9836-9fd5b47e9ad7">
              <TableID>dbo_FactInternetSales</TableID>
              <ColumnID>ExtendedAmount</ColumnID>
            </Source>
          </Source>
        </Measure>
        <Measure dwd:design-time-name="6e188b62-4cc3-419f-8584-130f528c40d5">
          <ID>Unit Price Discount Pct</ID>
          <Name>Unit Price Discount Pct</Name>
          <Source dwd:design-time-name="f635bc58-24ec-42d0-86d7-e3882746cfb4">
            <DataType>Double</DataType>
            <Source xsi:type="ColumnBinding" dwd:design-time-name="b9540b2e-7d84-41b1-ae23-c3c1c27a87e9">
              <TableID>dbo_FactInternetSales</TableID>
              <ColumnID>UnitPriceDiscountPct</ColumnID>
            </Source>
          </Source>
        </Measure>
        <Measure dwd:design-time-name="d740a004-5e89-480e-8baa-38319bc40d90">
          <ID>Discount Amount</ID>
          <Name>Discount Amount</Name>
          <Source dwd:design-time-name="306cee64-8b30-471d-a2eb-102a57cbae8e">
            <DataType>Double</DataType>
            <Source xsi:type="ColumnBinding" dwd:design-time-name="c68de2e3-3440-46b9-a0c5-e45e280ae05b">
              <TableID>dbo_FactInternetSales</TableID>
              <ColumnID>DiscountAmount</ColumnID>
            </Source>
          </Source>
        </Measure>
        <Measure dwd:design-time-name="468ecb86-1529-492b-8600-980291903271">
          <ID>Product Standard Cost</ID>
          <Name>Product Standard Cost</Name>
          <Source dwd:design-time-name="81814950-4ab4-4a55-99c8-41583faa0fbf">
            <DataType>Double</DataType>
            <Source xsi:type="ColumnBinding" dwd:design-time-name="76fa5fd7-699e-46d7-bc1c-75c709cb3d00">
              <TableID>dbo_FactInternetSales</TableID>
              <ColumnID>ProductStandardCost</ColumnID>
            </Source>
          </Source>
        </Measure>
        <Measure dwd:design-time-name="fdc1e983-2cef-4131-9a79-79bede643c7e">
          <ID>Total Product Cost</ID>
          <Name>Total Product Cost</Name>
          <Source dwd:design-time-name="d51b5ab1-e8bc-4cca-b08e-9f97038e65e7">
            <DataType>Double</DataType>
            <Source xsi:type="ColumnBinding" dwd:design-time-name="4c8049c8-7305-4a26-a381-b48b9a58ca34">
              <TableID>dbo_FactInternetSales</TableID>
              <ColumnID>TotalProductCost</ColumnID>
            </Source>
          </Source>
        </Measure>
        <Measure dwd:design-time-name="8dd61d7f-8664-4831-b9cc-32bf5118752e">
          <ID>Sales Amount</ID>
          <Name>Sales Amount</Name>
          <Source dwd:design-time-name="3c63c79c-3c89-4623-b92b-986186ece667">
            <DataType>Double</DataType>
            <Source xsi:type="ColumnBinding" dwd:design-time-name="cd7da46e-d539-45ae-925b-2359e1154f8b">
              <TableID>dbo_FactInternetSales</TableID>
              <ColumnID>SalesAmount</ColumnID>
            </Source>
          </Source>
        </Measure>
        <Measure dwd:design-time-name="d5e1d2bd-bd6e-44ef-b6b9-74bf84f7d8db">
          <ID>Tax Amt</ID>
          <Name>Tax Amt</Name>
          <Source dwd:design-time-name="95b6f715-301e-4b3c-82b8-3e14bbb896d5">
            <DataType>Double</DataType>
            <Source xsi:type="ColumnBinding" dwd:design-time-name="91674a51-5595-4216-8af7-6d809fdedd36">
              <TableID>dbo_FactInternetSales</TableID>
              <ColumnID>TaxAmt</ColumnID>
            </Source>
          </Source>
        </Measure>
        <Measure dwd:design-time-name="0f6335d0-2011-450c-bae0-06892a49d434">
          <ID>Freight</ID>
          <Name>Freight</Name>
          <Source dwd:design-time-name="13b722e6-7e59-4bb7-b63f-3bbb675630c6">
            <DataType>Double</DataType>
            <Source xsi:type="ColumnBinding" dwd:design-time-name="92256740-25dd-427e-89b7-af81d428b98a">
              <TableID>dbo_FactInternetSales</TableID>
              <ColumnID>Freight</ColumnID>
            </Source>
          </Source>
        </Measure>
        <Measure dwd:design-time-name="fb0ae60e-c213-40a4-aaf1-11c464ee2a0e">
          <ID>Fact Internet Sales Count</ID>
          <Name>Fact Internet Sales Count</Name>
          <AggregateFunction>Count</AggregateFunction>
          <Source dwd:design-time-name="ff9ee64d-ca25-492c-884c-1eba2a01b6ac">
            <DataType>Integer</DataType>
            <DataSize>4</DataSize>
            <Source xsi:type="RowBinding" dwd:design-time-name="2340bf05-cdde-43ae-a1ba-49d07dad6119">
              <TableID>dbo_FactInternetSales</TableID>
            </Source>
          </Source>
        </Measure>
      </Measures>
      <StorageMode>Molap</StorageMode>
      <ProcessingMode>Regular</ProcessingMode>
      <Dimensions>
        <Dimension xsi:type="DegenerateMeasureGroupDimension" dwd:design-time-name="62a47402-7800-4f88-9878-584125845a5e">
          <CubeDimensionID>Fact Internet Sales</CubeDimensionID>
          <Attributes>
            <Attribute dwd:design-time-name="d4004765-bb60-4edd-be02-5b921cfd9016">
              <AttributeID>Sales Order Number</AttributeID>
              <KeyColumns>
                <KeyColumn dwd:design-time-name="32607135-3c07-422a-a070-e79ae2daec9f">
                  <DataType>WChar</DataType>
                  <DataSize>20</DataSize>
                  <Source xsi:type="ColumnBinding" dwd:design-time-name="dd2f6a3e-5167-43c4-881f-0e9d9716b513">
                    <TableID>dbo_FactInternetSales</TableID>
                    <ColumnID>SalesOrderNumber</ColumnID>
                  </Source>
                </KeyColumn>
                <KeyColumn dwd:design-time-name="908819a3-6615-46b3-9b45-39641bb421b5">
                  <DataType>UnsignedTinyInt</DataType>
                  <Source xsi:type="ColumnBinding" dwd:design-time-name="b090a83f-bb7f-4514-a3fe-71c95fca2c79">
                    <TableID>dbo_FactInternetSales</TableID>
                    <ColumnID>SalesOrderLineNumber</ColumnID>
                  </Source>
                </KeyColumn>
              </KeyColumns>
              <Type>Granularity</Type>
            </Attribute>
          </Attributes>
        </Dimension>
        <Dimension xsi:type="RegularMeasureGroupDimension" dwd:design-time-name="f6456c19-d73e-438d-9a09-2c25bbbf5d8a">
          <CubeDimensionID>Dim Promotion</CubeDimensionID>
          <Attributes>
            <Attribute dwd:design-time-name="aaf66a0b-9511-4aa5-b143-15294d2b1939">
              <AttributeID>Promotion Key</AttributeID>
              <KeyColumns>
                <KeyColumn dwd:design-time-name="36919db5-f771-44af-b920-9ebec893d761">
                  <DataType>Integer</DataType>
                  <Source xsi:type="ColumnBinding" dwd:design-time-name="91caeb4d-abcf-4ae4-9031-9009f6650289">
                    <TableID>dbo_FactInternetSales</TableID>
                    <ColumnID>PromotionKey</ColumnID>
                  </Source>
                </KeyColumn>
              </KeyColumns>
              <Type>Granularity</Type>
            </Attribute>
          </Attributes>
        </Dimension>
        <Dimension xsi:type="RegularMeasureGroupDimension" dwd:design-time-name="24406b08-c872-42d5-899c-71feba9bd2c2">
          <CubeDimensionID>Order Date</CubeDimensionID>
          <Attributes>
            <Attribute dwd:design-time-name="a1385ce5-2a2b-45dd-b7eb-1d5f9acbe134">
              <AttributeID>Date Key</AttributeID>
              <KeyColumns>
                <KeyColumn dwd:design-time-name="f8b04a9a-ce5f-47ea-b976-15a9776c8177">
                  <DataType>Integer</DataType>
                  <Source xsi:type="ColumnBinding" dwd:design-time-name="998eb1ef-b0b5-4845-a2a8-011d050f4dbf">
                    <TableID>dbo_FactInternetSales</TableID>
                    <ColumnID>OrderDateKey</ColumnID>
                  </Source>
                </KeyColumn>
              </KeyColumns>
              <Type>Granularity</Type>
            </Attribute>
          </Attributes>
        </Dimension>
        <Dimension xsi:type="RegularMeasureGroupDimension" dwd:design-time-name="35999d45-9a49-4fba-8e80-09cf3a4a445f">
          <CubeDimensionID>Dim Sales Territory</CubeDimensionID>
          <Attributes>
            <Attribute dwd:design-time-name="9ff935fd-b872-47dc-b59a-c45f009e859b">
              <AttributeID>Sales Territory Key</AttributeID>
              <KeyColumns>
                <KeyColumn dwd:design-time-name="1c378026-6e0b-45b8-9dab-4292ded0df08">
                  <DataType>Integer</DataType>
                  <Source xsi:type="ColumnBinding" dwd:design-time-name="bd5991ec-32d3-4bf5-a83d-f39b206887a2">
                    <TableID>dbo_FactInternetSales</TableID>
                    <ColumnID>SalesTerritoryKey</ColumnID>
                  </Source>
                </KeyColumn>
              </KeyColumns>
              <Type>Granularity</Type>
            </Attribute>
          </Attributes>
        </Dimension>
        <Dimension xsi:type="RegularMeasureGroupDimension" dwd:design-time-name="db27616a-3370-4779-ac80-ee871fff7749">
          <CubeDimensionID>Dim Customer</CubeDimensionID>
          <Attributes>
            <Attribute dwd:design-time-name="40a365a1-6446-4762-b8d8-1d00e530f4d7">
              <AttributeID>Customer Key</AttributeID>
              <KeyColumns>
                <KeyColumn dwd:design-time-name="7ebe9479-a2ed-4925-b0df-c9c3ee0a7cb5">
                  <DataType>Integer</DataType>
                  <Source xsi:type="ColumnBinding" dwd:design-time-name="a16a9001-d9f6-44a8-b048-ae09586b9ed7">
                    <TableID>dbo_FactInternetSales</TableID>
                    <ColumnID>CustomerKey</ColumnID>
                  </Source>
                </KeyColumn>
              </KeyColumns>
              <Type>Granularity</Type>
            </Attribute>
          </Attributes>
        </Dimension>
        <Dimension xsi:type="RegularMeasureGroupDimension" dwd:design-time-name="28e6b5a8-a3ba-4fe4-b4d3-0ad797caeffc">
          <CubeDimensionID>Dim Currency</CubeDimensionID>
          <Attributes>
            <Attribute dwd:design-time-name="f229a8ab-d0f9-49aa-940f-0802597d217f">
              <AttributeID>Currency Key</AttributeID>
              <KeyColumns>
                <KeyColumn dwd:design-time-name="4f7456ec-0dac-46d5-8e20-eb77a61c9faa">
                  <DataType>Integer</DataType>
                  <Source xsi:type="ColumnBinding" dwd:design-time-name="c6d9e9b6-4c1e-4dff-8af0-31b42e0be475">
                    <TableID>dbo_FactInternetSales</TableID>
                    <ColumnID>CurrencyKey</ColumnID>
                  </Source>
                </KeyColumn>
              </KeyColumns>
              <Type>Granularity</Type>
            </Attribute>
          </Attributes>
        </Dimension>
        <Dimension xsi:type="RegularMeasureGroupDimension" dwd:design-time-name="fe4d0531-4e4b-4a6d-ad5e-81aca1feb814">
          <CubeDimensionID>Dim Product</CubeDimensionID>
          <Attributes>
            <Attribute dwd:design-time-name="0fdc528b-9475-4aef-85db-8320a47b121e">
              <AttributeID>Product Key</AttributeID>
              <KeyColumns>
                <KeyColumn dwd:design-time-name="2674bb08-2869-4297-afbf-5f4e2892ae2b">
                  <DataType>Integer</DataType>
                  <Source xsi:type="ColumnBinding" dwd:design-time-name="9c317204-b474-4fcf-b705-926b809c95ec">
                    <TableID>dbo_FactInternetSales</TableID>
                    <ColumnID>ProductKey</ColumnID>
                  </Source>
                </KeyColumn>
              </KeyColumns>
              <Type>Granularity</Type>
            </Attribute>
          </Attributes>
        </Dimension>
        <Dimension xsi:type="RegularMeasureGroupDimension" dwd:design-time-name="0899854c-8c94-44f8-8a47-245c9156462d">
          <CubeDimensionID>Ship Date</CubeDimensionID>
          <Attributes>
            <Attribute dwd:design-time-name="f23975c4-5034-4e94-a0cf-9ef10596215e">
              <AttributeID>Date Key</AttributeID>
              <KeyColumns>
                <KeyColumn dwd:design-time-name="c3920f56-fd3c-4253-a8f3-546316f750df">
                  <DataType>Integer</DataType>
                  <Source xsi:type="ColumnBinding" dwd:design-time-name="9946dfa5-ecd0-4c9b-ad96-7b48b5de82be">
                    <TableID>dbo_FactInternetSales</TableID>
                    <ColumnID>ShipDateKey</ColumnID>
                  </Source>
                </KeyColumn>
              </KeyColumns>
              <Type>Granularity</Type>
            </Attribute>
          </Attributes>
        </Dimension>
        <Dimension xsi:type="RegularMeasureGroupDimension" dwd:design-time-name="2db7b03d-9afe-4aa6-aef6-7b0637a3bdc9">
          <CubeDimensionID>Due Date</CubeDimensionID>
          <Attributes>
            <Attribute dwd:design-time-name="02f2e477-903b-4ae3-9df0-9782631136bd">
              <AttributeID>Date Key</AttributeID>
              <KeyColumns>
                <KeyColumn dwd:design-time-name="fb5bd851-f3be-450b-b5cb-4fea7ad21908">
                  <DataType>Integer</DataType>
                  <Source xsi:type="ColumnBinding" dwd:design-time-name="a1909683-7953-4134-a34a-654fad6cac2a">
                    <TableID>dbo_FactInternetSales</TableID>
                    <ColumnID>DueDateKey</ColumnID>
                  </Source>
                </KeyColumn>
              </KeyColumns>
              <Type>Granularity</Type>
            </Attribute>
          </Attributes>
        </Dimension>
      </Dimensions>
      <Partitions />
    </MeasureGroup>
    <MeasureGroup dwd:design-time-name="256e4b41-aaf4-4d31-b8e1-9a676c8a97fe">
      <ID>Dim Promotion</ID>
      <Name>Dim Promotion</Name>
      <CreatedTimestamp>0001-01-01T00:00:00Z</CreatedTimestamp>
      <LastSchemaUpdate>0001-01-01T00:00:00Z</LastSchemaUpdate>
      <LastProcessed>0001-01-01T00:00:00Z</LastProcessed>
      <State>Unprocessed</State>
      <Measures>
        <Measure dwd:design-time-name="3bb47fdd-7c5a-43d7-b877-7d52cfe0d7e5">
          <ID>Promotion Alternate Key</ID>
          <Name>Promotion Alternate Key</Name>
          <Source dwd:design-time-name="a5bb5216-5c5b-4b42-90c6-dc5ac701b3ac">
            <DataType>Integer</DataType>
            <Source xsi:type="ColumnBinding" dwd:design-time-name="b0f6dad2-3de0-484a-8cd2-930ef725ea0f">
              <TableID>dbo_DimPromotion</TableID>
              <ColumnID>PromotionAlternateKey</ColumnID>
            </Source>
          </Source>
        </Measure>
        <Measure dwd:design-time-name="a19e5a23-dbb6-4a3b-9a53-fb51d48cccaf">
          <ID>Discount Pct</ID>
          <Name>Discount Pct</Name>
          <Source dwd:design-time-name="650c0688-0636-495f-8f09-243c64d7f07a">
            <DataType>Double</DataType>
            <Source xsi:type="ColumnBinding" dwd:design-time-name="ad990963-3e76-4dea-83bd-1611a0d56e00">
              <TableID>dbo_DimPromotion</TableID>
              <ColumnID>DiscountPct</ColumnID>
            </Source>
          </Source>
        </Measure>
        <Measure dwd:design-time-name="224385c5-68fe-45d0-afe4-b13cc59b95d2">
          <ID>Min Qty</ID>
          <Name>Min Qty</Name>
          <Source dwd:design-time-name="36aa37f7-5da7-4a30-a7c2-fcbdab8a12c1">
            <DataType>Integer</DataType>
            <Source xsi:type="ColumnBinding" dwd:design-time-name="4c1e9dc8-f7fe-40ba-b3df-a71012ccd4bb">
              <TableID>dbo_DimPromotion</TableID>
              <ColumnID>MinQty</ColumnID>
            </Source>
          </Source>
        </Measure>
        <Measure dwd:design-time-name="0baf8ce0-7deb-4f50-bcc9-c1dff228a455">
          <ID>Max Qty</ID>
          <Name>Max Qty</Name>
          <Source dwd:design-time-name="efc6c0d1-ba62-4d5b-9fba-33300b6af052">
            <DataType>Integer</DataType>
            <Source xsi:type="ColumnBinding" dwd:design-time-name="18d9c5fe-f512-4c18-b033-7de28e7e4804">
              <TableID>dbo_DimPromotion</TableID>
              <ColumnID>MaxQty</ColumnID>
            </Source>
          </Source>
        </Measure>
        <Measure dwd:design-time-name="251066c1-33ba-4af7-a4a2-82d0a89c3529">
          <ID>Dim Promotion Count</ID>
          <Name>Dim Promotion Count</Name>
          <AggregateFunction>Count</AggregateFunction>
          <Source dwd:design-time-name="5b959876-c0a9-4269-b129-77a62b31a377">
            <DataType>Integer</DataType>
            <DataSize>4</DataSize>
            <Source xsi:type="RowBinding" dwd:design-time-name="659a4c0f-022f-4233-ade9-456bdbf9c938">
              <TableID>dbo_DimPromotion</TableID>
            </Source>
          </Source>
        </Measure>
      </Measures>
      <StorageMode>Molap</StorageMode>
      <ProcessingMode>Regular</ProcessingMode>
      <Dimensions>
        <Dimension xsi:type="DegenerateMeasureGroupDimension" dwd:design-time-name="c892ed95-6f3a-41e9-a28b-6ba95d60f8e8">
          <CubeDimensionID>Dim Promotion</CubeDimensionID>
          <Attributes>
            <Attribute dwd:design-time-name="82f6268b-46d2-467e-b2e5-06855576dbf0">
              <AttributeID>Promotion Key</AttributeID>
              <KeyColumns>
                <KeyColumn dwd:design-time-name="765ec02a-7d46-4634-a089-51ed4fd92955">
                  <DataType>Integer</DataType>
                  <Source xsi:type="ColumnBinding" dwd:design-time-name="496d43b3-216b-4d67-a09d-c9c6f721e618">
                    <TableID>dbo_DimPromotion</TableID>
                    <ColumnID>PromotionKey</ColumnID>
                  </Source>
                </KeyColumn>
              </KeyColumns>
              <Type>Granularity</Type>
            </Attribute>
          </Attributes>
        </Dimension>
      </Dimensions>
      <Partitions />
    </MeasureGroup>
  </MeasureGroups>
  <Source dwd:design-time-name="4e5a23a8-4afd-4fdc-af8f-449733b8b2a3">
    <DataSourceViewID>AdventureWorksDW</DataSourceViewID>
  </Source>
</Cube>